%TF.GenerationSoftware,KiCad,Pcbnew,(5.1.7)-1*%
%TF.CreationDate,2020-12-07T20:54:44+00:00*%
%TF.ProjectId,bluetoothTemp,626c7565-746f-46f7-9468-54656d702e6b,rev?*%
%TF.SameCoordinates,Original*%
%TF.FileFunction,Paste,Bot*%
%TF.FilePolarity,Positive*%
%FSLAX46Y46*%
G04 Gerber Fmt 4.6, Leading zero omitted, Abs format (unit mm)*
G04 Created by KiCad (PCBNEW (5.1.7)-1) date 2020-12-07 20:54:44*
%MOMM*%
%LPD*%
G01*
G04 APERTURE LIST*
%ADD10R,1.270000X5.080000*%
G04 APERTURE END LIST*
D10*
%TO.C,BT1*%
X96785000Y-104400000D03*
X74815000Y-104400000D03*
%TD*%
M02*
