%!PS-Adobe-3.0
%%Creator: PCBNEW
%%CreationDate: Sat Dec 05 00:38:19 2020
%%Title: C:\Users\ayhan\work\ayhanyks\HW\bluetoothTemp\prod\bluetoothTemp-PTH-drl_map.ps
%%Pages: 1
%%PageOrder: Ascend
%%BoundingBox: 0 0 596 842
%%DocumentMedia: A4 595 842 0 () ()
%%Orientation: Landscape
%%EndComments
%%BeginProlog
/line { newpath moveto lineto stroke } bind def
/cir0 { newpath 0 360 arc stroke } bind def
/cir1 { newpath 0 360 arc gsave fill grestore stroke } bind def
/cir2 { newpath 0 360 arc gsave fill grestore stroke } bind def
/arc0 { newpath arc stroke } bind def
/arc1 { newpath 4 index 4 index moveto arc closepath gsave fill
    grestore stroke } bind def
/arc2 { newpath 4 index 4 index moveto arc closepath gsave fill
    grestore stroke } bind def
/poly0 { stroke } bind def
/poly1 { closepath gsave fill grestore stroke } bind def
/poly2 { closepath gsave fill grestore stroke } bind def
/rect0 { rectstroke } bind def
/rect1 { rectfill } bind def
/rect2 { rectfill } bind def
/linemode0 { 0 setlinecap 0 setlinejoin 0 setlinewidth } bind def
/linemode1 { 1 setlinecap 1 setlinejoin } bind def
/dashedline { [200] 100 setdash } bind def
/solidline { [] 0 setdash } bind def
/phantomshow { moveto
    /KicadFont findfont 0.000001 scalefont setfont
    show } bind def
/textshow { gsave
    findfont exch scalefont setfont concat 1 scale 0 0 moveto show
    } bind def
/reencodefont {
  findfont dup length dict begin
  { 1 index /FID ne
    { def }
    { pop pop } ifelse
  } forall
  /Encoding ISOLatin1Encoding def
  currentdict
  end } bind def
/KicadFont /Helvetica reencodefont definefont pop
/KicadFont-Bold /Helvetica-Bold reencodefont definefont pop
/KicadFont-Oblique /Helvetica-Oblique reencodefont definefont pop
/KicadFont-BoldOblique /Helvetica-BoldOblique reencodefont definefont pop
%%EndProlog
%%Page: 1 1
%%BeginPageSetup
gsave
0.0072 0.0072 scale
linemode1
82680 0 translate 90 rotate
150 setlinewidth
%%EndPageSetup
0 0 0 setrgbcolor
59.0551 setlinewidth
newpath
29823.3 71458.7 moveto
87106.7 71458.7 lineto
stroke
0 0 0 setrgbcolor
newpath
29823.3 44293.3 moveto
29823.3 71458.7 lineto
stroke
0 0 0 setrgbcolor
newpath
87106.7 44293.3 moveto
29823.3 44293.3 lineto
stroke
0 0 0 setrgbcolor
newpath
87106.7 71458.7 moveto
87106.7 44293.3 lineto
stroke
78.7394 setlinewidth
newpath
33130.4 64017.7 moveto
33602.8 63545.3 lineto
stroke
newpath
33602.8 64017.7 moveto
33130.4 63545.3 lineto
stroke
newpath
34311.5 66379.9 moveto
34783.9 65907.5 lineto
stroke
newpath
34783.9 66379.9 moveto
34311.5 65907.5 lineto
stroke
newpath
36673.7 45710.6 moveto
37146.1 45238.2 lineto
stroke
newpath
37146.1 45710.6 moveto
36673.7 45238.2 lineto
stroke
newpath
39626.4 52206.7 moveto
40098.9 51734.3 lineto
stroke
newpath
40098.9 52206.7 moveto
39626.4 51734.3 lineto
stroke
newpath
43169.7 67561 moveto
43642.2 67088.6 lineto
stroke
newpath
43642.2 67561 moveto
43169.7 67088.6 lineto
stroke
newpath
45531.9 65789.4 moveto
46004.4 65316.9 lineto
stroke
newpath
46004.4 65789.4 moveto
45531.9 65316.9 lineto
stroke
newpath
49311.5 60356.3 moveto
49783.9 59883.9 lineto
stroke
newpath
49783.9 60356.3 moveto
49311.5 59883.9 lineto
stroke
newpath
49311.5 57521.7 moveto
49783.9 57049.2 lineto
stroke
newpath
49783.9 57521.7 moveto
49311.5 57049.2 lineto
stroke
newpath
50846.9 67561 moveto
51319.3 67088.6 lineto
stroke
newpath
51319.3 67561 moveto
50846.9 67088.6 lineto
stroke
newpath
51437.4 49254 moveto
51909.9 48781.5 lineto
stroke
newpath
51909.9 49254 moveto
51437.4 48781.5 lineto
stroke
newpath
56752.4 58112.2 moveto
57224.8 57639.8 lineto
stroke
newpath
57224.8 58112.2 moveto
56752.4 57639.8 lineto
stroke
newpath
59114.6 49254 moveto
59587 48781.5 lineto
stroke
newpath
59587 49254 moveto
59114.6 48781.5 lineto
stroke
newpath
59232.7 45946.9 moveto
59705.2 45474.4 lineto
stroke
newpath
59705.2 45946.9 moveto
59232.7 45474.4 lineto
stroke
newpath
60413.8 65553.2 moveto
60886.3 65080.7 lineto
stroke
newpath
60886.3 65553.2 moveto
60413.8 65080.7 lineto
stroke
newpath
62539.8 63427.2 moveto
63012.2 62954.7 lineto
stroke
newpath
63012.2 63427.2 moveto
62539.8 62954.7 lineto
stroke
newpath
63839 52206.7 moveto
64311.5 51734.3 lineto
stroke
newpath
64311.5 52206.7 moveto
63839 51734.3 lineto
stroke
newpath
65610.7 61065 moveto
66083.1 60592.5 lineto
stroke
newpath
66083.1 61065 moveto
65610.7 60592.5 lineto
stroke
newpath
67382.3 58702.8 moveto
67854.8 58230.3 lineto
stroke
newpath
67854.8 58702.8 moveto
67382.3 58230.3 lineto
stroke
newpath
67736.7 69332.7 moveto
68209.1 68860.3 lineto
stroke
newpath
68209.1 69332.7 moveto
67736.7 68860.3 lineto
stroke
newpath
69154 58112.2 moveto
69626.4 57639.8 lineto
stroke
newpath
69626.4 58112.2 moveto
69154 57639.8 lineto
stroke
newpath
72106.7 60474.4 moveto
72579.2 60002 lineto
stroke
newpath
72579.2 60474.4 moveto
72106.7 60002 lineto
stroke
newpath
72968.9 54840.6 moveto
73441.4 54368.1 lineto
stroke
newpath
73441.4 54840.6 moveto
72968.9 54368.1 lineto
stroke
newpath
75531.9 49254 moveto
76004.4 48781.5 lineto
stroke
newpath
76004.4 49254 moveto
75531.9 48781.5 lineto
stroke
newpath
76004.4 69332.7 moveto
76476.8 68860.3 lineto
stroke
newpath
76476.8 69332.7 moveto
76004.4 68860.3 lineto
stroke
newpath
81437.4 49254 moveto
81909.9 48781.5 lineto
stroke
newpath
81909.9 49254 moveto
81437.4 48781.5 lineto
stroke
newpath
83327.2 69332.7 moveto
83799.6 68860.3 lineto
stroke
newpath
83799.6 69332.7 moveto
83327.2 68860.3 lineto
stroke
118.11 setlinewidth
0 0 0 setrgbcolor
0 0 0 setrgbcolor
newpath
30921.4 42430.3 moveto
30921.4 43611.4 lineto
31202.6 43611.4 lineto
31371.4 43555.1 lineto
31483.8 43442.6 lineto
31540.1 43330.2 lineto
31596.3 43105.2 lineto
31596.3 42936.5 lineto
31540.1 42711.5 lineto
31483.8 42599 lineto
31371.4 42486.5 lineto
31202.6 42430.3 lineto
30921.4 42430.3 lineto
stroke
newpath
32102.5 42430.3 moveto
32102.5 43217.7 lineto
stroke
newpath
32102.5 42992.7 moveto
32158.8 43105.2 lineto
32215 43161.4 lineto
32327.5 43217.7 lineto
32440 43217.7 lineto
stroke
newpath
32833.7 42430.3 moveto
32833.7 43217.7 lineto
stroke
newpath
32833.7 43611.4 moveto
32777.4 43555.1 lineto
32833.7 43498.9 lineto
32889.9 43555.1 lineto
32833.7 43611.4 lineto
32833.7 43498.9 lineto
stroke
newpath
33564.8 42430.3 moveto
33452.3 42486.5 lineto
33396.1 42599 lineto
33396.1 43611.4 lineto
stroke
newpath
34183.5 42430.3 moveto
34071 42486.5 lineto
34014.8 42599 lineto
34014.8 43611.4 lineto
stroke
newpath
35533.3 42430.3 moveto
35533.3 43611.4 lineto
35927 42767.7 lineto
36320.7 43611.4 lineto
36320.7 42430.3 lineto
stroke
newpath
37389.4 42430.3 moveto
37389.4 43048.9 lineto
37333.1 43161.4 lineto
37220.6 43217.7 lineto
36995.7 43217.7 lineto
36883.2 43161.4 lineto
stroke
newpath
37389.4 42486.5 moveto
37276.9 42430.3 lineto
36995.7 42430.3 lineto
36883.2 42486.5 lineto
36826.9 42599 lineto
36826.9 42711.5 lineto
36883.2 42824 lineto
36995.7 42880.2 lineto
37276.9 42880.2 lineto
37389.4 42936.5 lineto
stroke
newpath
37951.8 43217.7 moveto
37951.8 42036.6 lineto
stroke
newpath
37951.8 43161.4 moveto
38064.3 43217.7 lineto
38289.2 43217.7 lineto
38401.7 43161.4 lineto
38458 43105.2 lineto
38514.2 42992.7 lineto
38514.2 42655.2 lineto
38458 42542.8 lineto
38401.7 42486.5 lineto
38289.2 42430.3 lineto
38064.3 42430.3 lineto
37951.8 42486.5 lineto
stroke
newpath
39020.4 42542.8 moveto
39076.6 42486.5 lineto
39020.4 42430.3 lineto
38964.2 42486.5 lineto
39020.4 42542.8 lineto
39020.4 42430.3 lineto
stroke
newpath
39020.4 43161.4 moveto
39076.6 43105.2 lineto
39020.4 43048.9 lineto
38964.2 43105.2 lineto
39020.4 43161.4 lineto
39020.4 43048.9 lineto
stroke
newpath
29321.3 40720.5 moveto
29793.7 40248 lineto
stroke
newpath
29793.7 40720.5 moveto
29321.3 40248 lineto
stroke
0 0 0 setrgbcolor
0 0 0 setrgbcolor
newpath
31146.4 41131.1 moveto
31258.9 41131.1 lineto
31371.4 41074.8 lineto
31427.6 41018.6 lineto
31483.8 40906.1 lineto
31540.1 40681.1 lineto
31540.1 40399.9 lineto
31483.8 40174.9 lineto
31427.6 40062.4 lineto
31371.4 40006.2 lineto
31258.9 39950 lineto
31146.4 39950 lineto
31033.9 40006.2 lineto
30977.7 40062.4 lineto
30921.4 40174.9 lineto
30865.2 40399.9 lineto
30865.2 40681.1 lineto
30921.4 40906.1 lineto
30977.7 41018.6 lineto
31033.9 41074.8 lineto
31146.4 41131.1 lineto
stroke
newpath
32046.3 40062.4 moveto
32102.5 40006.2 lineto
32046.3 39950 lineto
31990 40006.2 lineto
32046.3 40062.4 lineto
32046.3 39950 lineto
stroke
newpath
33114.9 40737.4 moveto
33114.9 39950 lineto
stroke
newpath
32833.7 41187.3 moveto
32552.5 40343.7 lineto
33283.6 40343.7 lineto
stroke
newpath
33958.5 41131.1 moveto
34071 41131.1 lineto
34183.5 41074.8 lineto
34239.7 41018.6 lineto
34296 40906.1 lineto
34352.2 40681.1 lineto
34352.2 40399.9 lineto
34296 40174.9 lineto
34239.7 40062.4 lineto
34183.5 40006.2 lineto
34071 39950 lineto
33958.5 39950 lineto
33846 40006.2 lineto
33789.8 40062.4 lineto
33733.6 40174.9 lineto
33677.3 40399.9 lineto
33677.3 40681.1 lineto
33733.6 40906.1 lineto
33789.8 41018.6 lineto
33846 41074.8 lineto
33958.5 41131.1 lineto
stroke
newpath
34858.4 39950 moveto
34858.4 40737.4 lineto
stroke
newpath
34858.4 40624.9 moveto
34914.7 40681.1 lineto
35027.1 40737.4 lineto
35195.9 40737.4 lineto
35308.4 40681.1 lineto
35364.6 40568.6 lineto
35364.6 39950 lineto
stroke
newpath
35364.6 40568.6 moveto
35420.8 40681.1 lineto
35533.3 40737.4 lineto
35702.1 40737.4 lineto
35814.5 40681.1 lineto
35870.8 40568.6 lineto
35870.8 39950 lineto
stroke
newpath
36433.2 39950 moveto
36433.2 40737.4 lineto
stroke
newpath
36433.2 40624.9 moveto
36489.5 40681.1 lineto
36602 40737.4 lineto
36770.7 40737.4 lineto
36883.2 40681.1 lineto
36939.4 40568.6 lineto
36939.4 39950 lineto
stroke
newpath
36939.4 40568.6 moveto
36995.7 40681.1 lineto
37108.1 40737.4 lineto
37276.9 40737.4 lineto
37389.4 40681.1 lineto
37445.6 40568.6 lineto
37445.6 39950 lineto
stroke
newpath
39751.6 41187.3 moveto
38739.2 39668.7 lineto
stroke
newpath
41270.1 41131.1 moveto
41382.6 41131.1 lineto
41495.1 41074.8 lineto
41551.3 41018.6 lineto
41607.6 40906.1 lineto
41663.8 40681.1 lineto
41663.8 40399.9 lineto
41607.6 40174.9 lineto
41551.3 40062.4 lineto
41495.1 40006.2 lineto
41382.6 39950 lineto
41270.1 39950 lineto
41157.6 40006.2 lineto
41101.4 40062.4 lineto
41045.1 40174.9 lineto
40988.9 40399.9 lineto
40988.9 40681.1 lineto
41045.1 40906.1 lineto
41101.4 41018.6 lineto
41157.6 41074.8 lineto
41270.1 41131.1 lineto
stroke
newpath
42170 40062.4 moveto
42226.2 40006.2 lineto
42170 39950 lineto
42113.8 40006.2 lineto
42170 40062.4 lineto
42170 39950 lineto
stroke
newpath
42957.4 41131.1 moveto
43069.9 41131.1 lineto
43182.4 41074.8 lineto
43238.6 41018.6 lineto
43294.9 40906.1 lineto
43351.1 40681.1 lineto
43351.1 40399.9 lineto
43294.9 40174.9 lineto
43238.6 40062.4 lineto
43182.4 40006.2 lineto
43069.9 39950 lineto
42957.4 39950 lineto
42844.9 40006.2 lineto
42788.7 40062.4 lineto
42732.4 40174.9 lineto
42676.2 40399.9 lineto
42676.2 40681.1 lineto
42732.4 40906.1 lineto
42788.7 41018.6 lineto
42844.9 41074.8 lineto
42957.4 41131.1 lineto
stroke
newpath
44476 39950 moveto
43801.1 39950 lineto
stroke
newpath
44138.5 39950 moveto
44138.5 41131.1 lineto
44026 40962.3 lineto
43913.5 40849.8 lineto
43801.1 40793.6 lineto
stroke
newpath
45488.3 41131.1 moveto
45263.4 41131.1 lineto
45150.9 41074.8 lineto
45094.6 41018.6 lineto
44982.2 40849.8 lineto
44925.9 40624.9 lineto
44925.9 40174.9 lineto
44982.2 40062.4 lineto
45038.4 40006.2 lineto
45150.9 39950 lineto
45375.9 39950 lineto
45488.3 40006.2 lineto
45544.6 40062.4 lineto
45600.8 40174.9 lineto
45600.8 40456.1 lineto
45544.6 40568.6 lineto
45488.3 40624.9 lineto
45375.9 40681.1 lineto
45150.9 40681.1 lineto
45038.4 40624.9 lineto
44982.2 40568.6 lineto
44925.9 40456.1 lineto
stroke
newpath
46050.8 41131.1 moveto
46050.8 40906.1 lineto
stroke
newpath
46500.7 41131.1 moveto
46500.7 40906.1 lineto
stroke
newpath
48244.2 39500 moveto
48188 39556.3 lineto
48075.5 39725 lineto
48019.3 39837.5 lineto
47963 40006.2 lineto
47906.8 40287.4 lineto
47906.8 40512.4 lineto
47963 40793.6 lineto
48019.3 40962.3 lineto
48075.5 41074.8 lineto
48188 41243.5 lineto
48244.2 41299.8 lineto
stroke
newpath
48637.9 41018.6 moveto
48694.2 41074.8 lineto
48806.7 41131.1 lineto
49087.9 41131.1 lineto
49200.4 41074.8 lineto
49256.6 41018.6 lineto
49312.9 40906.1 lineto
49312.9 40793.6 lineto
49256.6 40624.9 lineto
48581.7 39950 lineto
49312.9 39950 lineto
stroke
newpath
50325.2 41131.1 moveto
50100.3 41131.1 lineto
49987.8 41074.8 lineto
49931.5 41018.6 lineto
49819 40849.8 lineto
49762.8 40624.9 lineto
49762.8 40174.9 lineto
49819 40062.4 lineto
49875.3 40006.2 lineto
49987.8 39950 lineto
50212.7 39950 lineto
50325.2 40006.2 lineto
50381.5 40062.4 lineto
50437.7 40174.9 lineto
50437.7 40456.1 lineto
50381.5 40568.6 lineto
50325.2 40624.9 lineto
50212.7 40681.1 lineto
49987.8 40681.1 lineto
49875.3 40624.9 lineto
49819 40568.6 lineto
49762.8 40456.1 lineto
stroke
newpath
51843.8 39950 moveto
51843.8 41131.1 lineto
stroke
newpath
52350 39950 moveto
52350 40568.6 lineto
52293.7 40681.1 lineto
52181.3 40737.4 lineto
52012.5 40737.4 lineto
51900 40681.1 lineto
51843.8 40624.9 lineto
stroke
newpath
53081.1 39950 moveto
52968.7 40006.2 lineto
52912.4 40062.4 lineto
52856.2 40174.9 lineto
52856.2 40512.4 lineto
52912.4 40624.9 lineto
52968.7 40681.1 lineto
53081.1 40737.4 lineto
53249.9 40737.4 lineto
53362.4 40681.1 lineto
53418.6 40624.9 lineto
53474.8 40512.4 lineto
53474.8 40174.9 lineto
53418.6 40062.4 lineto
53362.4 40006.2 lineto
53249.9 39950 lineto
53081.1 39950 lineto
stroke
newpath
54149.8 39950 moveto
54037.3 40006.2 lineto
53981 40118.7 lineto
53981 41131.1 lineto
stroke
newpath
55049.6 40006.2 moveto
54937.2 39950 lineto
54712.2 39950 lineto
54599.7 40006.2 lineto
54543.5 40118.7 lineto
54543.5 40568.6 lineto
54599.7 40681.1 lineto
54712.2 40737.4 lineto
54937.2 40737.4 lineto
55049.6 40681.1 lineto
55105.9 40568.6 lineto
55105.9 40456.1 lineto
54543.5 40343.7 lineto
stroke
newpath
55555.8 40006.2 moveto
55668.3 39950 lineto
55893.3 39950 lineto
56005.8 40006.2 lineto
56062 40118.7 lineto
56062 40174.9 lineto
56005.8 40287.4 lineto
55893.3 40343.7 lineto
55724.6 40343.7 lineto
55612.1 40399.9 lineto
55555.8 40512.4 lineto
55555.8 40568.6 lineto
55612.1 40681.1 lineto
55724.6 40737.4 lineto
55893.3 40737.4 lineto
56005.8 40681.1 lineto
stroke
newpath
56455.7 39500 moveto
56512 39556.3 lineto
56624.4 39725 lineto
56680.7 39837.5 lineto
56736.9 40006.2 lineto
56793.2 40287.4 lineto
56793.2 40512.4 lineto
56736.9 40793.6 lineto
56680.7 40962.3 lineto
56624.4 41074.8 lineto
56512 41243.5 lineto
56455.7 41299.8 lineto
stroke
showpage
grestore
%%EOF
