M48
; DRILL file {KiCad (5.1.7)-1} date 12/07/20 20:54:54
; FORMAT={-:-/ absolute / inch / decimal}
; #@! TF.CreationDate,2020-12-07T20:54:54+00:00
; #@! TF.GenerationSoftware,Kicad,Pcbnew,(5.1.7)-1
; #@! TF.FileFunction,Plated,1,2,PTH
FMAT,2
INCH
T1C0.0157
T2C0.0394
%
G90
G05
T1
X2.6575Y-4.0433
X2.685Y-3.9055
X2.7362Y-3.7953
X2.7953Y-3.878
X2.8504Y-3.9764
X2.9213Y-4.4252
X2.9528Y-4.311
X2.9567Y-4.3858
X2.9961Y-3.9134
X3.0827Y-4.0157
X3.0866Y-3.8543
X3.0945Y-4.2008
X3.1142Y-3.7835
X3.1969Y-3.7835
X3.2126Y-4.5108
X3.2756Y-4.0394
X3.2756Y-4.1339
X3.3465Y-4.4094
X3.3543Y-3.8504
X3.4449Y-4.5276
X3.5157Y-4.5236
X3.5236Y-4.1142
X3.6024Y-4.4094
X3.6063Y-4.5197
X3.6457Y-3.8661
X3.7165Y-3.937
X3.7717Y-3.9213
X3.7756Y-4.4252
T2
X2.6693Y-3.7126
X2.7693Y-3.7126
X2.8693Y-3.7126
X2.9693Y-3.7126
X3.0693Y-3.7126
X3.1693Y-3.7126
T0
M30
