%!PS-Adobe-3.0
%%Creator: PCBNEW
%%CreationDate: Sat Dec 05 00:38:19 2020
%%Title: C:\Users\ayhan\work\ayhanyks\HW\bluetoothTemp\prod\bluetoothTemp-NPTH-drl_map.ps
%%Pages: 1
%%PageOrder: Ascend
%%BoundingBox: 0 0 596 842
%%DocumentMedia: A4 595 842 0 () ()
%%Orientation: Landscape
%%EndComments
%%BeginProlog
/line { newpath moveto lineto stroke } bind def
/cir0 { newpath 0 360 arc stroke } bind def
/cir1 { newpath 0 360 arc gsave fill grestore stroke } bind def
/cir2 { newpath 0 360 arc gsave fill grestore stroke } bind def
/arc0 { newpath arc stroke } bind def
/arc1 { newpath 4 index 4 index moveto arc closepath gsave fill
    grestore stroke } bind def
/arc2 { newpath 4 index 4 index moveto arc closepath gsave fill
    grestore stroke } bind def
/poly0 { stroke } bind def
/poly1 { closepath gsave fill grestore stroke } bind def
/poly2 { closepath gsave fill grestore stroke } bind def
/rect0 { rectstroke } bind def
/rect1 { rectfill } bind def
/rect2 { rectfill } bind def
/linemode0 { 0 setlinecap 0 setlinejoin 0 setlinewidth } bind def
/linemode1 { 1 setlinecap 1 setlinejoin } bind def
/dashedline { [200] 100 setdash } bind def
/solidline { [] 0 setdash } bind def
/phantomshow { moveto
    /KicadFont findfont 0.000001 scalefont setfont
    show } bind def
/textshow { gsave
    findfont exch scalefont setfont concat 1 scale 0 0 moveto show
    } bind def
/reencodefont {
  findfont dup length dict begin
  { 1 index /FID ne
    { def }
    { pop pop } ifelse
  } forall
  /Encoding ISOLatin1Encoding def
  currentdict
  end } bind def
/KicadFont /Helvetica reencodefont definefont pop
/KicadFont-Bold /Helvetica-Bold reencodefont definefont pop
/KicadFont-Oblique /Helvetica-Oblique reencodefont definefont pop
/KicadFont-BoldOblique /Helvetica-BoldOblique reencodefont definefont pop
%%EndProlog
%%Page: 1 1
%%BeginPageSetup
gsave
0.0072 0.0072 scale
linemode1
82680 0 translate 90 rotate
150 setlinewidth
%%EndPageSetup
0 0 0 setrgbcolor
59.0551 setlinewidth
newpath
29823.3 71458.7 moveto
87106.7 71458.7 lineto
stroke
0 0 0 setrgbcolor
newpath
29823.3 44293.3 moveto
29823.3 71458.7 lineto
stroke
0 0 0 setrgbcolor
newpath
87106.7 44293.3 moveto
29823.3 44293.3 lineto
stroke
0 0 0 setrgbcolor
newpath
87106.7 71458.7 moveto
87106.7 44293.3 lineto
stroke
78.7394 setlinewidth
118.11 setlinewidth
0 0 0 setrgbcolor
0 0 0 setrgbcolor
newpath
30921.4 42430.3 moveto
30921.4 43611.4 lineto
31202.6 43611.4 lineto
31371.4 43555.1 lineto
31483.8 43442.6 lineto
31540.1 43330.2 lineto
31596.3 43105.2 lineto
31596.3 42936.5 lineto
31540.1 42711.5 lineto
31483.8 42599 lineto
31371.4 42486.5 lineto
31202.6 42430.3 lineto
30921.4 42430.3 lineto
stroke
newpath
32102.5 42430.3 moveto
32102.5 43217.7 lineto
stroke
newpath
32102.5 42992.7 moveto
32158.8 43105.2 lineto
32215 43161.4 lineto
32327.5 43217.7 lineto
32440 43217.7 lineto
stroke
newpath
32833.7 42430.3 moveto
32833.7 43217.7 lineto
stroke
newpath
32833.7 43611.4 moveto
32777.4 43555.1 lineto
32833.7 43498.9 lineto
32889.9 43555.1 lineto
32833.7 43611.4 lineto
32833.7 43498.9 lineto
stroke
newpath
33564.8 42430.3 moveto
33452.3 42486.5 lineto
33396.1 42599 lineto
33396.1 43611.4 lineto
stroke
newpath
34183.5 42430.3 moveto
34071 42486.5 lineto
34014.8 42599 lineto
34014.8 43611.4 lineto
stroke
newpath
35533.3 42430.3 moveto
35533.3 43611.4 lineto
35927 42767.7 lineto
36320.7 43611.4 lineto
36320.7 42430.3 lineto
stroke
newpath
37389.4 42430.3 moveto
37389.4 43048.9 lineto
37333.1 43161.4 lineto
37220.6 43217.7 lineto
36995.7 43217.7 lineto
36883.2 43161.4 lineto
stroke
newpath
37389.4 42486.5 moveto
37276.9 42430.3 lineto
36995.7 42430.3 lineto
36883.2 42486.5 lineto
36826.9 42599 lineto
36826.9 42711.5 lineto
36883.2 42824 lineto
36995.7 42880.2 lineto
37276.9 42880.2 lineto
37389.4 42936.5 lineto
stroke
newpath
37951.8 43217.7 moveto
37951.8 42036.6 lineto
stroke
newpath
37951.8 43161.4 moveto
38064.3 43217.7 lineto
38289.2 43217.7 lineto
38401.7 43161.4 lineto
38458 43105.2 lineto
38514.2 42992.7 lineto
38514.2 42655.2 lineto
38458 42542.8 lineto
38401.7 42486.5 lineto
38289.2 42430.3 lineto
38064.3 42430.3 lineto
37951.8 42486.5 lineto
stroke
newpath
39020.4 42542.8 moveto
39076.6 42486.5 lineto
39020.4 42430.3 lineto
38964.2 42486.5 lineto
39020.4 42542.8 lineto
39020.4 42430.3 lineto
stroke
newpath
39020.4 43161.4 moveto
39076.6 43105.2 lineto
39020.4 43048.9 lineto
38964.2 43105.2 lineto
39020.4 43161.4 lineto
39020.4 43048.9 lineto
stroke
showpage
grestore
%%EOF
