%TF.GenerationSoftware,KiCad,Pcbnew,(5.1.7)-1*%
%TF.CreationDate,2020-12-07T20:54:44+00:00*%
%TF.ProjectId,bluetoothTemp,626c7565-746f-46f7-9468-54656d702e6b,rev?*%
%TF.SameCoordinates,Original*%
%TF.FileFunction,Copper,L1,Top*%
%TF.FilePolarity,Positive*%
%FSLAX46Y46*%
G04 Gerber Fmt 4.6, Leading zero omitted, Abs format (unit mm)*
G04 Created by KiCad (PCBNEW (5.1.7)-1) date 2020-12-07 20:54:44*
%MOMM*%
%LPD*%
G01*
G04 APERTURE LIST*
%TA.AperFunction,SMDPad,CuDef*%
%ADD10R,1.400000X1.600000*%
%TD*%
%TA.AperFunction,ComponentPad*%
%ADD11O,1.700000X1.700000*%
%TD*%
%TA.AperFunction,ComponentPad*%
%ADD12R,1.700000X1.700000*%
%TD*%
%TA.AperFunction,SMDPad,CuDef*%
%ADD13R,0.500000X1.200000*%
%TD*%
%TA.AperFunction,SMDPad,CuDef*%
%ADD14R,1.200000X0.500000*%
%TD*%
%TA.AperFunction,SMDPad,CuDef*%
%ADD15R,0.900000X0.800000*%
%TD*%
%TA.AperFunction,SMDPad,CuDef*%
%ADD16R,0.400000X0.600000*%
%TD*%
%TA.AperFunction,SMDPad,CuDef*%
%ADD17R,2.400000X1.500000*%
%TD*%
%TA.AperFunction,ViaPad*%
%ADD18C,0.800000*%
%TD*%
%TA.AperFunction,Conductor*%
%ADD19C,0.150000*%
%TD*%
%TA.AperFunction,Conductor*%
%ADD20C,0.250000*%
%TD*%
%TA.AperFunction,Conductor*%
%ADD21C,0.254000*%
%TD*%
%TA.AperFunction,Conductor*%
%ADD22C,0.100000*%
%TD*%
G04 APERTURE END LIST*
D10*
%TO.P,SW1,2*%
%TO.N,VDD*%
X93800000Y-95200000D03*
X93800000Y-102400000D03*
%TO.P,SW1,1*%
%TO.N,/BTN*%
X96800000Y-95200000D03*
X96800000Y-102400000D03*
%TD*%
%TO.P,R5,2*%
%TO.N,/BTN*%
%TA.AperFunction,SMDPad,CuDef*%
G36*
G01*
X91440000Y-94760000D02*
X91440000Y-94440000D01*
G75*
G02*
X91600000Y-94280000I160000J0D01*
G01*
X91995000Y-94280000D01*
G75*
G02*
X92155000Y-94440000I0J-160000D01*
G01*
X92155000Y-94760000D01*
G75*
G02*
X91995000Y-94920000I-160000J0D01*
G01*
X91600000Y-94920000D01*
G75*
G02*
X91440000Y-94760000I0J160000D01*
G01*
G37*
%TD.AperFunction*%
%TO.P,R5,1*%
%TO.N,GND*%
%TA.AperFunction,SMDPad,CuDef*%
G36*
G01*
X90245000Y-94760000D02*
X90245000Y-94440000D01*
G75*
G02*
X90405000Y-94280000I160000J0D01*
G01*
X90800000Y-94280000D01*
G75*
G02*
X90960000Y-94440000I0J-160000D01*
G01*
X90960000Y-94760000D01*
G75*
G02*
X90800000Y-94920000I-160000J0D01*
G01*
X90405000Y-94920000D01*
G75*
G02*
X90245000Y-94760000I0J160000D01*
G01*
G37*
%TD.AperFunction*%
%TD*%
%TO.P,R3,2*%
%TO.N,Net-(J1-Pad3)*%
%TA.AperFunction,SMDPad,CuDef*%
G36*
G01*
X68040000Y-96860000D02*
X68040000Y-96540000D01*
G75*
G02*
X68200000Y-96380000I160000J0D01*
G01*
X68595000Y-96380000D01*
G75*
G02*
X68755000Y-96540000I0J-160000D01*
G01*
X68755000Y-96860000D01*
G75*
G02*
X68595000Y-97020000I-160000J0D01*
G01*
X68200000Y-97020000D01*
G75*
G02*
X68040000Y-96860000I0J160000D01*
G01*
G37*
%TD.AperFunction*%
%TO.P,R3,1*%
%TO.N,VDD*%
%TA.AperFunction,SMDPad,CuDef*%
G36*
G01*
X66845000Y-96860000D02*
X66845000Y-96540000D01*
G75*
G02*
X67005000Y-96380000I160000J0D01*
G01*
X67400000Y-96380000D01*
G75*
G02*
X67560000Y-96540000I0J-160000D01*
G01*
X67560000Y-96860000D01*
G75*
G02*
X67400000Y-97020000I-160000J0D01*
G01*
X67005000Y-97020000D01*
G75*
G02*
X66845000Y-96860000I0J160000D01*
G01*
G37*
%TD.AperFunction*%
%TD*%
D11*
%TO.P,J1,6*%
%TO.N,/SIO_7*%
X80500000Y-94300000D03*
%TO.P,J1,5*%
%TO.N,/SIO_6*%
X77960000Y-94300000D03*
%TO.P,J1,4*%
%TO.N,/SIO_8*%
X75420000Y-94300000D03*
%TO.P,J1,3*%
%TO.N,Net-(J1-Pad3)*%
X72880000Y-94300000D03*
%TO.P,J1,2*%
%TO.N,/SIO_5*%
X70340000Y-94300000D03*
D12*
%TO.P,J1,1*%
%TO.N,GND*%
X67800000Y-94300000D03*
%TD*%
D13*
%TO.P,U3,39*%
%TO.N,GND*%
X71950000Y-113900000D03*
%TO.P,U3,38*%
%TO.N,/WP*%
X72700000Y-113900000D03*
%TO.P,U3,37*%
%TO.N,/SDA*%
X73450000Y-113900000D03*
%TO.P,U3,36*%
%TO.N,/SCL*%
X74200000Y-113900000D03*
%TO.P,U3,35*%
%TO.N,/BTN*%
X74950000Y-113900000D03*
%TO.P,U3,34*%
%TO.N,N/C*%
X75700000Y-113900000D03*
%TO.P,U3,33*%
X76450000Y-113900000D03*
%TO.P,U3,32*%
X77200000Y-113900000D03*
%TO.P,U3,31*%
X77950000Y-113900000D03*
%TO.P,U3,30*%
X78700000Y-113900000D03*
%TO.P,U3,29*%
X79450000Y-113900000D03*
%TO.P,U3,28*%
X80200000Y-113900000D03*
D14*
%TO.P,U3,27*%
%TO.N,GND*%
X80650000Y-112750000D03*
%TO.P,U3,26*%
%TO.N,VDD*%
X80650000Y-112000000D03*
%TO.P,U3,25*%
%TO.N,N/C*%
X80650000Y-111250000D03*
%TO.P,U3,24*%
X80650000Y-110500000D03*
%TO.P,U3,23*%
X80650000Y-109750000D03*
%TO.P,U3,22*%
X80650000Y-109000000D03*
%TO.P,U3,21*%
X80650000Y-108250000D03*
%TO.P,U3,20*%
%TO.N,/SIO_5*%
X80650000Y-107500000D03*
%TO.P,U3,19*%
%TO.N,/SIO_6*%
X80650000Y-106750000D03*
%TO.P,U3,18*%
%TO.N,/SIO_7*%
X80650000Y-106000000D03*
%TO.P,U3,17*%
%TO.N,/SIO_8*%
X80650000Y-105250000D03*
D13*
%TO.P,U3,16*%
%TO.N,GND*%
X80200000Y-104100000D03*
%TO.P,U3,15*%
%TO.N,N/C*%
X79450000Y-104100000D03*
%TO.P,U3,14*%
X78700000Y-104100000D03*
%TO.P,U3,13*%
X77950000Y-104100000D03*
%TO.P,U3,12*%
X77200000Y-104100000D03*
%TO.P,U3,11*%
X76450000Y-104100000D03*
%TO.P,U3,10*%
X75700000Y-104100000D03*
%TO.P,U3,9*%
X74950000Y-104100000D03*
%TO.P,U3,8*%
X74200000Y-104100000D03*
%TO.P,U3,7*%
X73450000Y-104100000D03*
%TO.P,U3,6*%
X72700000Y-104100000D03*
%TO.P,U3,5*%
X71950000Y-104100000D03*
%TO.P,U3,4*%
X71200000Y-104100000D03*
%TO.P,U3,3*%
%TO.N,/DRDY*%
X70450000Y-104100000D03*
%TO.P,U3,2*%
%TO.N,Net-(Q1-Pad1)*%
X69700000Y-104100000D03*
%TO.P,U3,1*%
%TO.N,GND*%
X68950000Y-104100000D03*
%TD*%
%TO.P,U1,8*%
%TO.N,VDD*%
%TA.AperFunction,SMDPad,CuDef*%
G36*
G01*
X91255000Y-108500000D02*
X91555000Y-108500000D01*
G75*
G02*
X91705000Y-108650000I0J-150000D01*
G01*
X91705000Y-110300000D01*
G75*
G02*
X91555000Y-110450000I-150000J0D01*
G01*
X91255000Y-110450000D01*
G75*
G02*
X91105000Y-110300000I0J150000D01*
G01*
X91105000Y-108650000D01*
G75*
G02*
X91255000Y-108500000I150000J0D01*
G01*
G37*
%TD.AperFunction*%
%TO.P,U1,7*%
%TO.N,/WP*%
%TA.AperFunction,SMDPad,CuDef*%
G36*
G01*
X89985000Y-108500000D02*
X90285000Y-108500000D01*
G75*
G02*
X90435000Y-108650000I0J-150000D01*
G01*
X90435000Y-110300000D01*
G75*
G02*
X90285000Y-110450000I-150000J0D01*
G01*
X89985000Y-110450000D01*
G75*
G02*
X89835000Y-110300000I0J150000D01*
G01*
X89835000Y-108650000D01*
G75*
G02*
X89985000Y-108500000I150000J0D01*
G01*
G37*
%TD.AperFunction*%
%TO.P,U1,6*%
%TO.N,/SCL*%
%TA.AperFunction,SMDPad,CuDef*%
G36*
G01*
X88715000Y-108500000D02*
X89015000Y-108500000D01*
G75*
G02*
X89165000Y-108650000I0J-150000D01*
G01*
X89165000Y-110300000D01*
G75*
G02*
X89015000Y-110450000I-150000J0D01*
G01*
X88715000Y-110450000D01*
G75*
G02*
X88565000Y-110300000I0J150000D01*
G01*
X88565000Y-108650000D01*
G75*
G02*
X88715000Y-108500000I150000J0D01*
G01*
G37*
%TD.AperFunction*%
%TO.P,U1,5*%
%TO.N,/SDA*%
%TA.AperFunction,SMDPad,CuDef*%
G36*
G01*
X87445000Y-108500000D02*
X87745000Y-108500000D01*
G75*
G02*
X87895000Y-108650000I0J-150000D01*
G01*
X87895000Y-110300000D01*
G75*
G02*
X87745000Y-110450000I-150000J0D01*
G01*
X87445000Y-110450000D01*
G75*
G02*
X87295000Y-110300000I0J150000D01*
G01*
X87295000Y-108650000D01*
G75*
G02*
X87445000Y-108500000I150000J0D01*
G01*
G37*
%TD.AperFunction*%
%TO.P,U1,4*%
%TO.N,GND*%
%TA.AperFunction,SMDPad,CuDef*%
G36*
G01*
X87445000Y-103550000D02*
X87745000Y-103550000D01*
G75*
G02*
X87895000Y-103700000I0J-150000D01*
G01*
X87895000Y-105350000D01*
G75*
G02*
X87745000Y-105500000I-150000J0D01*
G01*
X87445000Y-105500000D01*
G75*
G02*
X87295000Y-105350000I0J150000D01*
G01*
X87295000Y-103700000D01*
G75*
G02*
X87445000Y-103550000I150000J0D01*
G01*
G37*
%TD.AperFunction*%
%TO.P,U1,3*%
%TA.AperFunction,SMDPad,CuDef*%
G36*
G01*
X88715000Y-103550000D02*
X89015000Y-103550000D01*
G75*
G02*
X89165000Y-103700000I0J-150000D01*
G01*
X89165000Y-105350000D01*
G75*
G02*
X89015000Y-105500000I-150000J0D01*
G01*
X88715000Y-105500000D01*
G75*
G02*
X88565000Y-105350000I0J150000D01*
G01*
X88565000Y-103700000D01*
G75*
G02*
X88715000Y-103550000I150000J0D01*
G01*
G37*
%TD.AperFunction*%
%TO.P,U1,2*%
%TA.AperFunction,SMDPad,CuDef*%
G36*
G01*
X89985000Y-103550000D02*
X90285000Y-103550000D01*
G75*
G02*
X90435000Y-103700000I0J-150000D01*
G01*
X90435000Y-105350000D01*
G75*
G02*
X90285000Y-105500000I-150000J0D01*
G01*
X89985000Y-105500000D01*
G75*
G02*
X89835000Y-105350000I0J150000D01*
G01*
X89835000Y-103700000D01*
G75*
G02*
X89985000Y-103550000I150000J0D01*
G01*
G37*
%TD.AperFunction*%
%TO.P,U1,1*%
%TO.N,N/C*%
%TA.AperFunction,SMDPad,CuDef*%
G36*
G01*
X91255000Y-103550000D02*
X91555000Y-103550000D01*
G75*
G02*
X91705000Y-103700000I0J-150000D01*
G01*
X91705000Y-105350000D01*
G75*
G02*
X91555000Y-105500000I-150000J0D01*
G01*
X91255000Y-105500000D01*
G75*
G02*
X91105000Y-105350000I0J150000D01*
G01*
X91105000Y-103700000D01*
G75*
G02*
X91255000Y-103550000I150000J0D01*
G01*
G37*
%TD.AperFunction*%
%TD*%
%TO.P,R4,2*%
%TO.N,GND*%
%TA.AperFunction,SMDPad,CuDef*%
G36*
G01*
X73275000Y-99062500D02*
X73275000Y-99537500D01*
G75*
G02*
X73037500Y-99775000I-237500J0D01*
G01*
X72537500Y-99775000D01*
G75*
G02*
X72300000Y-99537500I0J237500D01*
G01*
X72300000Y-99062500D01*
G75*
G02*
X72537500Y-98825000I237500J0D01*
G01*
X73037500Y-98825000D01*
G75*
G02*
X73275000Y-99062500I0J-237500D01*
G01*
G37*
%TD.AperFunction*%
%TO.P,R4,1*%
%TO.N,Net-(D1-Pad1)*%
%TA.AperFunction,SMDPad,CuDef*%
G36*
G01*
X75100000Y-99062500D02*
X75100000Y-99537500D01*
G75*
G02*
X74862500Y-99775000I-237500J0D01*
G01*
X74362500Y-99775000D01*
G75*
G02*
X74125000Y-99537500I0J237500D01*
G01*
X74125000Y-99062500D01*
G75*
G02*
X74362500Y-98825000I237500J0D01*
G01*
X74862500Y-98825000D01*
G75*
G02*
X75100000Y-99062500I0J-237500D01*
G01*
G37*
%TD.AperFunction*%
%TD*%
D15*
%TO.P,Q1,3*%
%TO.N,VDD*%
X67200000Y-99200000D03*
%TO.P,Q1,2*%
%TO.N,Net-(D1-Pad2)*%
X69200000Y-98250000D03*
%TO.P,Q1,1*%
%TO.N,Net-(Q1-Pad1)*%
X69200000Y-100150000D03*
%TD*%
%TO.P,D1,2*%
%TO.N,Net-(D1-Pad2)*%
%TA.AperFunction,SMDPad,CuDef*%
G36*
G01*
X73450000Y-96843750D02*
X73450000Y-97356250D01*
G75*
G02*
X73231250Y-97575000I-218750J0D01*
G01*
X72793750Y-97575000D01*
G75*
G02*
X72575000Y-97356250I0J218750D01*
G01*
X72575000Y-96843750D01*
G75*
G02*
X72793750Y-96625000I218750J0D01*
G01*
X73231250Y-96625000D01*
G75*
G02*
X73450000Y-96843750I0J-218750D01*
G01*
G37*
%TD.AperFunction*%
%TO.P,D1,1*%
%TO.N,Net-(D1-Pad1)*%
%TA.AperFunction,SMDPad,CuDef*%
G36*
G01*
X75025000Y-96843750D02*
X75025000Y-97356250D01*
G75*
G02*
X74806250Y-97575000I-218750J0D01*
G01*
X74368750Y-97575000D01*
G75*
G02*
X74150000Y-97356250I0J218750D01*
G01*
X74150000Y-96843750D01*
G75*
G02*
X74368750Y-96625000I218750J0D01*
G01*
X74806250Y-96625000D01*
G75*
G02*
X75025000Y-96843750I0J-218750D01*
G01*
G37*
%TD.AperFunction*%
%TD*%
%TO.P,R2,2*%
%TO.N,/SDA*%
%TA.AperFunction,SMDPad,CuDef*%
G36*
G01*
X91737500Y-101075000D02*
X91262500Y-101075000D01*
G75*
G02*
X91025000Y-100837500I0J237500D01*
G01*
X91025000Y-100337500D01*
G75*
G02*
X91262500Y-100100000I237500J0D01*
G01*
X91737500Y-100100000D01*
G75*
G02*
X91975000Y-100337500I0J-237500D01*
G01*
X91975000Y-100837500D01*
G75*
G02*
X91737500Y-101075000I-237500J0D01*
G01*
G37*
%TD.AperFunction*%
%TO.P,R2,1*%
%TO.N,VDD*%
%TA.AperFunction,SMDPad,CuDef*%
G36*
G01*
X91737500Y-102900000D02*
X91262500Y-102900000D01*
G75*
G02*
X91025000Y-102662500I0J237500D01*
G01*
X91025000Y-102162500D01*
G75*
G02*
X91262500Y-101925000I237500J0D01*
G01*
X91737500Y-101925000D01*
G75*
G02*
X91975000Y-102162500I0J-237500D01*
G01*
X91975000Y-102662500D01*
G75*
G02*
X91737500Y-102900000I-237500J0D01*
G01*
G37*
%TD.AperFunction*%
%TD*%
%TO.P,R1,2*%
%TO.N,/SCL*%
%TA.AperFunction,SMDPad,CuDef*%
G36*
G01*
X85762500Y-101925000D02*
X86237500Y-101925000D01*
G75*
G02*
X86475000Y-102162500I0J-237500D01*
G01*
X86475000Y-102662500D01*
G75*
G02*
X86237500Y-102900000I-237500J0D01*
G01*
X85762500Y-102900000D01*
G75*
G02*
X85525000Y-102662500I0J237500D01*
G01*
X85525000Y-102162500D01*
G75*
G02*
X85762500Y-101925000I237500J0D01*
G01*
G37*
%TD.AperFunction*%
%TO.P,R1,1*%
%TO.N,VDD*%
%TA.AperFunction,SMDPad,CuDef*%
G36*
G01*
X85762500Y-100100000D02*
X86237500Y-100100000D01*
G75*
G02*
X86475000Y-100337500I0J-237500D01*
G01*
X86475000Y-100837500D01*
G75*
G02*
X86237500Y-101075000I-237500J0D01*
G01*
X85762500Y-101075000D01*
G75*
G02*
X85525000Y-100837500I0J237500D01*
G01*
X85525000Y-100337500D01*
G75*
G02*
X85762500Y-100100000I237500J0D01*
G01*
G37*
%TD.AperFunction*%
%TD*%
%TO.P,C2,2*%
%TO.N,GND*%
%TA.AperFunction,SMDPad,CuDef*%
G36*
G01*
X83962500Y-109737500D02*
X83962500Y-109262500D01*
G75*
G02*
X84200000Y-109025000I237500J0D01*
G01*
X84800000Y-109025000D01*
G75*
G02*
X85037500Y-109262500I0J-237500D01*
G01*
X85037500Y-109737500D01*
G75*
G02*
X84800000Y-109975000I-237500J0D01*
G01*
X84200000Y-109975000D01*
G75*
G02*
X83962500Y-109737500I0J237500D01*
G01*
G37*
%TD.AperFunction*%
%TO.P,C2,1*%
%TO.N,VDD*%
%TA.AperFunction,SMDPad,CuDef*%
G36*
G01*
X82237500Y-109737500D02*
X82237500Y-109262500D01*
G75*
G02*
X82475000Y-109025000I237500J0D01*
G01*
X83075000Y-109025000D01*
G75*
G02*
X83312500Y-109262500I0J-237500D01*
G01*
X83312500Y-109737500D01*
G75*
G02*
X83075000Y-109975000I-237500J0D01*
G01*
X82475000Y-109975000D01*
G75*
G02*
X82237500Y-109737500I0J237500D01*
G01*
G37*
%TD.AperFunction*%
%TD*%
%TO.P,C1,2*%
%TO.N,GND*%
%TA.AperFunction,SMDPad,CuDef*%
G36*
G01*
X93562500Y-110725000D02*
X94037500Y-110725000D01*
G75*
G02*
X94275000Y-110962500I0J-237500D01*
G01*
X94275000Y-111562500D01*
G75*
G02*
X94037500Y-111800000I-237500J0D01*
G01*
X93562500Y-111800000D01*
G75*
G02*
X93325000Y-111562500I0J237500D01*
G01*
X93325000Y-110962500D01*
G75*
G02*
X93562500Y-110725000I237500J0D01*
G01*
G37*
%TD.AperFunction*%
%TO.P,C1,1*%
%TO.N,VDD*%
%TA.AperFunction,SMDPad,CuDef*%
G36*
G01*
X93562500Y-109000000D02*
X94037500Y-109000000D01*
G75*
G02*
X94275000Y-109237500I0J-237500D01*
G01*
X94275000Y-109837500D01*
G75*
G02*
X94037500Y-110075000I-237500J0D01*
G01*
X93562500Y-110075000D01*
G75*
G02*
X93325000Y-109837500I0J237500D01*
G01*
X93325000Y-109237500D01*
G75*
G02*
X93562500Y-109000000I237500J0D01*
G01*
G37*
%TD.AperFunction*%
%TD*%
D16*
%TO.P,U2,6*%
%TO.N,/SCL*%
X89450000Y-98900000D03*
%TO.P,U2,5*%
%TO.N,VDD*%
X88500000Y-98900000D03*
%TO.P,U2,4*%
%TO.N,/DRDY*%
X87550000Y-98900000D03*
%TO.P,U2,3*%
%TO.N,GND*%
X87550000Y-96100000D03*
%TO.P,U2,2*%
X88500000Y-96100000D03*
%TO.P,U2,1*%
%TO.N,/SDA*%
X89450000Y-96100000D03*
D17*
%TO.P,U2,7*%
%TO.N,N/C*%
X88500000Y-97500000D03*
%TD*%
D18*
%TO.N,GND*%
X95900000Y-112400000D03*
%TO.N,VDD*%
X95800000Y-99600000D03*
X75000000Y-109500000D03*
X68200000Y-99200000D03*
%TO.N,GND*%
X83200000Y-102600000D03*
X83200000Y-105000000D03*
X85000000Y-112000000D03*
X91500000Y-112000000D03*
X89500000Y-104500000D03*
X85200000Y-97800000D03*
X78600000Y-106700000D03*
X67500000Y-102700000D03*
X91600000Y-114800000D03*
X92600000Y-98200000D03*
X94400000Y-100000000D03*
X78300000Y-102000000D03*
X72400000Y-101000000D03*
X87500000Y-115000000D03*
%TO.N,/SCL*%
X74200000Y-112400000D03*
X81600000Y-114575000D03*
%TO.N,/DRDY*%
X71000000Y-98500000D03*
X81200000Y-96100000D03*
%TO.N,/SIO_5*%
X76100000Y-99400000D03*
X78400000Y-97900000D03*
%TO.N,/SIO_7*%
X79100000Y-96100000D03*
%TO.N,Net-(J1-Pad3)*%
X69500000Y-96400000D03*
%TO.N,/BTN*%
X89300000Y-114900000D03*
X75100000Y-111400000D03*
%TD*%
D19*
%TO.N,VDD*%
X88500000Y-98900000D02*
X88500000Y-99500000D01*
X88500000Y-99500000D02*
X87412500Y-100587500D01*
X87412500Y-100587500D02*
X86000000Y-100587500D01*
X93500000Y-107380000D02*
X91405000Y-109475000D01*
X93500000Y-106500000D02*
X93500000Y-107380000D01*
X93500000Y-106500000D02*
X93500000Y-104325000D01*
X67200000Y-99200000D02*
X68200000Y-99200000D01*
X93737500Y-109475000D02*
X93800000Y-109537500D01*
X91405000Y-109475000D02*
X93737500Y-109475000D01*
X77500000Y-112000000D02*
X75000000Y-109500000D01*
X80650000Y-112000000D02*
X77500000Y-112000000D01*
X80650000Y-112000000D02*
X82500000Y-112000000D01*
X82775000Y-111725000D02*
X82775000Y-109500000D01*
X82500000Y-112000000D02*
X82775000Y-111725000D01*
X83825001Y-108449999D02*
X82775000Y-109500000D01*
X83825001Y-103249999D02*
X83825001Y-108449999D01*
X86000000Y-101075000D02*
X83825001Y-103249999D01*
X86000000Y-100587500D02*
X86000000Y-101075000D01*
X67202500Y-99197500D02*
X67200000Y-99200000D01*
X67202500Y-96700000D02*
X67202500Y-99197500D01*
X95800000Y-100400000D02*
X93800000Y-102400000D01*
X95800000Y-99600000D02*
X95800000Y-100400000D01*
X93500000Y-102700000D02*
X93800000Y-102400000D01*
X93500000Y-104325000D02*
X93500000Y-102700000D01*
X93787500Y-102412500D02*
X93800000Y-102400000D01*
X91500000Y-102412500D02*
X93787500Y-102412500D01*
X95800000Y-99600000D02*
X94300000Y-98100000D01*
X94300000Y-95700000D02*
X93800000Y-95200000D01*
X94300000Y-98100000D02*
X94300000Y-95700000D01*
%TO.N,GND*%
X80200000Y-104100000D02*
X80200000Y-103800000D01*
X71950000Y-113900000D02*
X71950000Y-112150000D01*
X71950000Y-112150000D02*
X72500000Y-111600000D01*
X80650000Y-112750000D02*
X82350000Y-112750000D01*
X82350000Y-112750000D02*
X83000000Y-113400000D01*
X68950000Y-104100000D02*
X68950000Y-103750000D01*
X68950000Y-103750000D02*
X68700000Y-103500000D01*
X80200000Y-104100000D02*
X80200000Y-102700000D01*
X80200000Y-102700000D02*
X79500000Y-102000000D01*
X80200000Y-104100000D02*
X80200000Y-102500000D01*
D20*
%TO.N,/SCL*%
X89450000Y-99050000D02*
X89450000Y-98900000D01*
D19*
X86500000Y-108500000D02*
X87500000Y-107500000D01*
X89450000Y-99484302D02*
X89450000Y-98900000D01*
X86099990Y-102834311D02*
X89450000Y-99484302D01*
X86099990Y-108099990D02*
X86099990Y-102834311D01*
X86500000Y-108500000D02*
X86099990Y-108099990D01*
X87865000Y-107500000D02*
X87500000Y-107500000D01*
X88865000Y-108500000D02*
X87865000Y-107500000D01*
X88865000Y-109475000D02*
X88865000Y-108500000D01*
X85678179Y-102412500D02*
X86099990Y-102834311D01*
X74200000Y-113900000D02*
X74200000Y-112400000D01*
X86500000Y-113000000D02*
X86500000Y-108500000D01*
X84925000Y-114575000D02*
X86500000Y-113000000D01*
X82000000Y-114575000D02*
X84925000Y-114575000D01*
%TO.N,/SDA*%
X89545002Y-96100000D02*
X89450000Y-96100000D01*
X90000000Y-96554998D02*
X89545002Y-96100000D01*
X90000000Y-99500000D02*
X90000000Y-96554998D01*
X87595000Y-109475000D02*
X87595000Y-112905000D01*
X91500000Y-100587500D02*
X91087500Y-100587500D01*
X91087500Y-100587500D02*
X90000000Y-99500000D01*
X87000000Y-106000000D02*
X87000000Y-102500000D01*
X87595000Y-112905000D02*
X89440010Y-111059990D01*
X89440010Y-111059990D02*
X89440010Y-107874311D01*
X89440010Y-107874311D02*
X88065698Y-106500000D01*
X88065698Y-106500000D02*
X87500000Y-106500000D01*
X87500000Y-106500000D02*
X87000000Y-106000000D01*
X87000000Y-102500000D02*
X87250000Y-102250000D01*
X87250000Y-102250000D02*
X90000000Y-99500000D01*
X73450000Y-115050000D02*
X73450000Y-113900000D01*
X85300000Y-115200000D02*
X73600000Y-115200000D01*
X73600000Y-115200000D02*
X73450000Y-115050000D01*
X87595000Y-112905000D02*
X85300000Y-115200000D01*
%TO.N,Net-(D1-Pad2)*%
X69850000Y-98250000D02*
X69200000Y-98250000D01*
X70300000Y-97800000D02*
X69850000Y-98250000D01*
X70300000Y-97200000D02*
X70300000Y-97800000D01*
X71000000Y-96500000D02*
X70300000Y-97200000D01*
X72412500Y-96500000D02*
X71000000Y-96500000D01*
X73012500Y-97100000D02*
X72412500Y-96500000D01*
%TO.N,Net-(D1-Pad1)*%
X74587500Y-99275000D02*
X74612500Y-99300000D01*
X74587500Y-97100000D02*
X74587500Y-99275000D01*
%TO.N,Net-(Q1-Pad1)*%
X69700000Y-102500000D02*
X69700000Y-103100000D01*
X69700000Y-103100000D02*
X69700000Y-101700000D01*
X69700000Y-103100000D02*
X69700000Y-104100000D01*
X69700000Y-100650000D02*
X69200000Y-100150000D01*
X69700000Y-101700000D02*
X69700000Y-100650000D01*
%TO.N,/WP*%
X72700000Y-115300000D02*
X73000000Y-115600000D01*
X72700000Y-113900000D02*
X72700000Y-115300000D01*
X90135000Y-110965000D02*
X90135000Y-110735000D01*
X85500000Y-115600000D02*
X90135000Y-110965000D01*
X90135000Y-110735000D02*
X90135000Y-109475000D01*
X73000000Y-115600000D02*
X85500000Y-115600000D01*
%TO.N,/DRDY*%
X70450000Y-104100000D02*
X70450000Y-101950000D01*
X70450000Y-101950000D02*
X71000000Y-101400000D01*
X81837499Y-96737499D02*
X81200000Y-96100000D01*
X85062501Y-96737499D02*
X81837499Y-96737499D01*
X87225002Y-98900000D02*
X85062501Y-96737499D01*
X87550000Y-98900000D02*
X87225002Y-98900000D01*
X71000000Y-99600000D02*
X71000000Y-98500000D01*
X71000000Y-101400000D02*
X71000000Y-99600000D01*
%TO.N,/SIO_5*%
X79600000Y-99100000D02*
X78400000Y-97900000D01*
X79800000Y-99100000D02*
X79600000Y-99100000D01*
X82400009Y-101700009D02*
X79800000Y-99100000D01*
X82400009Y-106499991D02*
X82400009Y-101700009D01*
X81400000Y-107500000D02*
X82400009Y-106499991D01*
X80650000Y-107500000D02*
X81400000Y-107500000D01*
X76100000Y-97100000D02*
X75000000Y-96000000D01*
X76100000Y-99400000D02*
X76100000Y-97100000D01*
X72040000Y-96000000D02*
X70340000Y-94300000D01*
X75000000Y-96000000D02*
X72040000Y-96000000D01*
%TO.N,/SIO_6*%
X82100000Y-106050000D02*
X81400000Y-106750000D01*
X79800000Y-99800000D02*
X82100000Y-102100000D01*
X79000000Y-99800000D02*
X79800000Y-99800000D01*
X81400000Y-106750000D02*
X80650000Y-106750000D01*
X82100000Y-102100000D02*
X82100000Y-106050000D01*
X79000000Y-99775722D02*
X77600000Y-98375722D01*
X79000000Y-99800000D02*
X79000000Y-99775722D01*
X77600000Y-97774998D02*
X78474998Y-96900000D01*
X77600000Y-98000000D02*
X77600000Y-97774998D01*
X77600000Y-98000000D02*
X77600000Y-98375722D01*
X78225002Y-94300000D02*
X77960000Y-94300000D01*
X79725001Y-95799999D02*
X78225002Y-94300000D01*
X79725001Y-96400001D02*
X79725001Y-95799999D01*
X79225002Y-96900000D02*
X79725001Y-96400001D01*
X78474998Y-96900000D02*
X79225002Y-96900000D01*
%TO.N,/SIO_7*%
X79100000Y-96100000D02*
X78244278Y-96100000D01*
X77172139Y-97172139D02*
X77322139Y-97022139D01*
X79812139Y-100287861D02*
X78487861Y-100287861D01*
X78487861Y-100287861D02*
X77172139Y-98972139D01*
X81600000Y-102075722D02*
X79812139Y-100287861D01*
X81600000Y-105555002D02*
X81600000Y-102075722D01*
X81155002Y-106000000D02*
X81600000Y-105555002D01*
X80650000Y-106000000D02*
X81155002Y-106000000D01*
X78244278Y-96100000D02*
X77322139Y-97022139D01*
X77172139Y-98972139D02*
X77172139Y-97172139D01*
%TO.N,/SIO_8*%
X81200000Y-104700000D02*
X80650000Y-105250000D01*
X79700000Y-100600000D02*
X81200000Y-102100000D01*
X78200000Y-100600000D02*
X79700000Y-100600000D01*
X76737861Y-98737861D02*
X76737861Y-99137861D01*
X76400010Y-98400010D02*
X76737861Y-98737861D01*
X81200000Y-102100000D02*
X81200000Y-104700000D01*
X76737861Y-99137861D02*
X78200000Y-100600000D01*
X76400010Y-95280010D02*
X76400010Y-98400010D01*
X75420000Y-94300000D02*
X76400010Y-95280010D01*
%TO.N,Net-(J1-Pad3)*%
X68697500Y-96400000D02*
X68397500Y-96700000D01*
X69500000Y-96400000D02*
X68697500Y-96400000D01*
%TO.N,/BTN*%
X92222501Y-94174999D02*
X92225001Y-94174999D01*
X91797500Y-94600000D02*
X92222501Y-94174999D01*
X92225001Y-94174999D02*
X92700000Y-93700000D01*
X95300000Y-93700000D02*
X96800000Y-95200000D01*
X92700000Y-93700000D02*
X95300000Y-93700000D01*
X96800000Y-95200000D02*
X96800000Y-102400000D01*
X96800000Y-102400000D02*
X96800000Y-112100000D01*
X89400000Y-115000000D02*
X89300000Y-114900000D01*
X90474998Y-115000000D02*
X89400000Y-115000000D01*
X75100000Y-113750000D02*
X74950000Y-113900000D01*
X75100000Y-111400000D02*
X75100000Y-113750000D01*
X90899999Y-115425001D02*
X95374999Y-115425001D01*
X90474998Y-115000000D02*
X90899999Y-115425001D01*
X96800000Y-114000000D02*
X96800000Y-112100000D01*
X95374999Y-115425001D02*
X96800000Y-114000000D01*
%TD*%
D21*
%TO.N,GND*%
X95461928Y-103200000D02*
X95474188Y-103324482D01*
X95510498Y-103444180D01*
X95569463Y-103554494D01*
X95648815Y-103651185D01*
X95745506Y-103730537D01*
X95855820Y-103789502D01*
X95975518Y-103825812D01*
X96090000Y-103837087D01*
X96090001Y-112065123D01*
X96090000Y-113705909D01*
X95080908Y-114715001D01*
X91194090Y-114715001D01*
X91001710Y-114522621D01*
X90979473Y-114495525D01*
X90871361Y-114406800D01*
X90748018Y-114340872D01*
X90614182Y-114300273D01*
X90509875Y-114290000D01*
X90509873Y-114290000D01*
X90474998Y-114286565D01*
X90440123Y-114290000D01*
X90137195Y-114290000D01*
X90103937Y-114240226D01*
X89959774Y-114096063D01*
X89790256Y-113982795D01*
X89601898Y-113904774D01*
X89401939Y-113865000D01*
X89198061Y-113865000D01*
X88998102Y-113904774D01*
X88809744Y-113982795D01*
X88640226Y-114096063D01*
X88496063Y-114240226D01*
X88382795Y-114409744D01*
X88304774Y-114598102D01*
X88265000Y-114798061D01*
X88265000Y-115001939D01*
X88304774Y-115201898D01*
X88361978Y-115340000D01*
X86764091Y-115340000D01*
X90612383Y-111491708D01*
X90639474Y-111469475D01*
X90728200Y-111361363D01*
X90794128Y-111238020D01*
X90834727Y-111104184D01*
X90845000Y-110999877D01*
X90845000Y-110999875D01*
X90847783Y-110971621D01*
X90953418Y-111028084D01*
X91101255Y-111072929D01*
X91255000Y-111088072D01*
X91555000Y-111088072D01*
X91708745Y-111072929D01*
X91856582Y-111028084D01*
X91992829Y-110955258D01*
X92112251Y-110857251D01*
X92210258Y-110737829D01*
X92283084Y-110601582D01*
X92327929Y-110453745D01*
X92343072Y-110300000D01*
X92343072Y-110185000D01*
X92760223Y-110185000D01*
X92834488Y-110323942D01*
X92943377Y-110456623D01*
X93076058Y-110565512D01*
X93227433Y-110646423D01*
X93391684Y-110696248D01*
X93562500Y-110713072D01*
X94037500Y-110713072D01*
X94208316Y-110696248D01*
X94372567Y-110646423D01*
X94523942Y-110565512D01*
X94656623Y-110456623D01*
X94765512Y-110323942D01*
X94846423Y-110172567D01*
X94896248Y-110008316D01*
X94913072Y-109837500D01*
X94913072Y-109237500D01*
X94896248Y-109066684D01*
X94846423Y-108902433D01*
X94765512Y-108751058D01*
X94656623Y-108618377D01*
X94523942Y-108509488D01*
X94372567Y-108428577D01*
X94208316Y-108378752D01*
X94037500Y-108361928D01*
X93562500Y-108361928D01*
X93517757Y-108366335D01*
X93977384Y-107906708D01*
X94004475Y-107884475D01*
X94081294Y-107790871D01*
X94093199Y-107776365D01*
X94132078Y-107703627D01*
X94159128Y-107653020D01*
X94199727Y-107519184D01*
X94210000Y-107414877D01*
X94210000Y-107414876D01*
X94213435Y-107380001D01*
X94210000Y-107345126D01*
X94210000Y-103838072D01*
X94500000Y-103838072D01*
X94624482Y-103825812D01*
X94744180Y-103789502D01*
X94854494Y-103730537D01*
X94951185Y-103651185D01*
X95030537Y-103554494D01*
X95089502Y-103444180D01*
X95125812Y-103324482D01*
X95138072Y-103200000D01*
X95138072Y-102066019D01*
X95461928Y-101742164D01*
X95461928Y-103200000D01*
%TA.AperFunction,Conductor*%
D22*
G36*
X95461928Y-103200000D02*
G01*
X95474188Y-103324482D01*
X95510498Y-103444180D01*
X95569463Y-103554494D01*
X95648815Y-103651185D01*
X95745506Y-103730537D01*
X95855820Y-103789502D01*
X95975518Y-103825812D01*
X96090000Y-103837087D01*
X96090001Y-112065123D01*
X96090000Y-113705909D01*
X95080908Y-114715001D01*
X91194090Y-114715001D01*
X91001710Y-114522621D01*
X90979473Y-114495525D01*
X90871361Y-114406800D01*
X90748018Y-114340872D01*
X90614182Y-114300273D01*
X90509875Y-114290000D01*
X90509873Y-114290000D01*
X90474998Y-114286565D01*
X90440123Y-114290000D01*
X90137195Y-114290000D01*
X90103937Y-114240226D01*
X89959774Y-114096063D01*
X89790256Y-113982795D01*
X89601898Y-113904774D01*
X89401939Y-113865000D01*
X89198061Y-113865000D01*
X88998102Y-113904774D01*
X88809744Y-113982795D01*
X88640226Y-114096063D01*
X88496063Y-114240226D01*
X88382795Y-114409744D01*
X88304774Y-114598102D01*
X88265000Y-114798061D01*
X88265000Y-115001939D01*
X88304774Y-115201898D01*
X88361978Y-115340000D01*
X86764091Y-115340000D01*
X90612383Y-111491708D01*
X90639474Y-111469475D01*
X90728200Y-111361363D01*
X90794128Y-111238020D01*
X90834727Y-111104184D01*
X90845000Y-110999877D01*
X90845000Y-110999875D01*
X90847783Y-110971621D01*
X90953418Y-111028084D01*
X91101255Y-111072929D01*
X91255000Y-111088072D01*
X91555000Y-111088072D01*
X91708745Y-111072929D01*
X91856582Y-111028084D01*
X91992829Y-110955258D01*
X92112251Y-110857251D01*
X92210258Y-110737829D01*
X92283084Y-110601582D01*
X92327929Y-110453745D01*
X92343072Y-110300000D01*
X92343072Y-110185000D01*
X92760223Y-110185000D01*
X92834488Y-110323942D01*
X92943377Y-110456623D01*
X93076058Y-110565512D01*
X93227433Y-110646423D01*
X93391684Y-110696248D01*
X93562500Y-110713072D01*
X94037500Y-110713072D01*
X94208316Y-110696248D01*
X94372567Y-110646423D01*
X94523942Y-110565512D01*
X94656623Y-110456623D01*
X94765512Y-110323942D01*
X94846423Y-110172567D01*
X94896248Y-110008316D01*
X94913072Y-109837500D01*
X94913072Y-109237500D01*
X94896248Y-109066684D01*
X94846423Y-108902433D01*
X94765512Y-108751058D01*
X94656623Y-108618377D01*
X94523942Y-108509488D01*
X94372567Y-108428577D01*
X94208316Y-108378752D01*
X94037500Y-108361928D01*
X93562500Y-108361928D01*
X93517757Y-108366335D01*
X93977384Y-107906708D01*
X94004475Y-107884475D01*
X94081294Y-107790871D01*
X94093199Y-107776365D01*
X94132078Y-107703627D01*
X94159128Y-107653020D01*
X94199727Y-107519184D01*
X94210000Y-107414877D01*
X94210000Y-107414876D01*
X94213435Y-107380001D01*
X94210000Y-107345126D01*
X94210000Y-103838072D01*
X94500000Y-103838072D01*
X94624482Y-103825812D01*
X94744180Y-103789502D01*
X94854494Y-103730537D01*
X94951185Y-103651185D01*
X95030537Y-103554494D01*
X95089502Y-103444180D01*
X95125812Y-103324482D01*
X95138072Y-103200000D01*
X95138072Y-102066019D01*
X95461928Y-101742164D01*
X95461928Y-103200000D01*
G37*
%TD.AperFunction*%
D21*
X79075518Y-105325812D02*
X79200000Y-105338072D01*
X79411928Y-105338072D01*
X79411928Y-105500000D01*
X79424188Y-105624482D01*
X79424345Y-105625000D01*
X79424188Y-105625518D01*
X79411928Y-105750000D01*
X79411928Y-106250000D01*
X79424188Y-106374482D01*
X79424345Y-106375000D01*
X79424188Y-106375518D01*
X79411928Y-106500000D01*
X79411928Y-107000000D01*
X79424188Y-107124482D01*
X79424345Y-107125000D01*
X79424188Y-107125518D01*
X79411928Y-107250000D01*
X79411928Y-107750000D01*
X79424188Y-107874482D01*
X79424345Y-107875000D01*
X79424188Y-107875518D01*
X79411928Y-108000000D01*
X79411928Y-108500000D01*
X79424188Y-108624482D01*
X79424345Y-108625000D01*
X79424188Y-108625518D01*
X79411928Y-108750000D01*
X79411928Y-109250000D01*
X79424188Y-109374482D01*
X79424345Y-109375000D01*
X79424188Y-109375518D01*
X79411928Y-109500000D01*
X79411928Y-110000000D01*
X79424188Y-110124482D01*
X79424345Y-110125000D01*
X79424188Y-110125518D01*
X79411928Y-110250000D01*
X79411928Y-110750000D01*
X79424188Y-110874482D01*
X79424345Y-110875000D01*
X79424188Y-110875518D01*
X79411928Y-111000000D01*
X79411928Y-111290000D01*
X77794091Y-111290000D01*
X76035000Y-109530909D01*
X76035000Y-109398061D01*
X75995226Y-109198102D01*
X75917205Y-109009744D01*
X75803937Y-108840226D01*
X75659774Y-108696063D01*
X75490256Y-108582795D01*
X75301898Y-108504774D01*
X75101939Y-108465000D01*
X74898061Y-108465000D01*
X74698102Y-108504774D01*
X74509744Y-108582795D01*
X74340226Y-108696063D01*
X74196063Y-108840226D01*
X74082795Y-109009744D01*
X74004774Y-109198102D01*
X73965000Y-109398061D01*
X73965000Y-109601939D01*
X74004774Y-109801898D01*
X74082795Y-109990256D01*
X74196063Y-110159774D01*
X74340226Y-110303937D01*
X74509744Y-110417205D01*
X74638918Y-110470711D01*
X74609744Y-110482795D01*
X74440226Y-110596063D01*
X74296063Y-110740226D01*
X74182795Y-110909744D01*
X74104774Y-111098102D01*
X74065000Y-111298061D01*
X74065000Y-111371576D01*
X73898102Y-111404774D01*
X73709744Y-111482795D01*
X73540226Y-111596063D01*
X73396063Y-111740226D01*
X73282795Y-111909744D01*
X73204774Y-112098102D01*
X73165000Y-112298061D01*
X73165000Y-112501939D01*
X73196885Y-112662235D01*
X73075518Y-112674188D01*
X73075000Y-112674345D01*
X73074482Y-112674188D01*
X72950000Y-112661928D01*
X72450000Y-112661928D01*
X72325518Y-112674188D01*
X72205820Y-112710498D01*
X72095506Y-112769463D01*
X71998815Y-112848815D01*
X71919463Y-112945506D01*
X71860498Y-113055820D01*
X71824188Y-113175518D01*
X71811928Y-113300000D01*
X71811928Y-114500000D01*
X71824188Y-114624482D01*
X71860498Y-114744180D01*
X71919463Y-114854494D01*
X71990001Y-114940445D01*
X71990001Y-115265116D01*
X71986565Y-115300000D01*
X71990505Y-115340000D01*
X71627000Y-115340000D01*
X71627000Y-105330882D01*
X71700000Y-105338072D01*
X72200000Y-105338072D01*
X72324482Y-105325812D01*
X72325000Y-105325655D01*
X72325518Y-105325812D01*
X72450000Y-105338072D01*
X72950000Y-105338072D01*
X73074482Y-105325812D01*
X73075000Y-105325655D01*
X73075518Y-105325812D01*
X73200000Y-105338072D01*
X73700000Y-105338072D01*
X73824482Y-105325812D01*
X73825000Y-105325655D01*
X73825518Y-105325812D01*
X73950000Y-105338072D01*
X74450000Y-105338072D01*
X74574482Y-105325812D01*
X74575000Y-105325655D01*
X74575518Y-105325812D01*
X74700000Y-105338072D01*
X75200000Y-105338072D01*
X75324482Y-105325812D01*
X75325000Y-105325655D01*
X75325518Y-105325812D01*
X75450000Y-105338072D01*
X75950000Y-105338072D01*
X76074482Y-105325812D01*
X76075000Y-105325655D01*
X76075518Y-105325812D01*
X76200000Y-105338072D01*
X76700000Y-105338072D01*
X76824482Y-105325812D01*
X76825000Y-105325655D01*
X76825518Y-105325812D01*
X76950000Y-105338072D01*
X77450000Y-105338072D01*
X77574482Y-105325812D01*
X77575000Y-105325655D01*
X77575518Y-105325812D01*
X77700000Y-105338072D01*
X78200000Y-105338072D01*
X78324482Y-105325812D01*
X78325000Y-105325655D01*
X78325518Y-105325812D01*
X78450000Y-105338072D01*
X78950000Y-105338072D01*
X79074482Y-105325812D01*
X79075000Y-105325655D01*
X79075518Y-105325812D01*
%TA.AperFunction,Conductor*%
D22*
G36*
X79075518Y-105325812D02*
G01*
X79200000Y-105338072D01*
X79411928Y-105338072D01*
X79411928Y-105500000D01*
X79424188Y-105624482D01*
X79424345Y-105625000D01*
X79424188Y-105625518D01*
X79411928Y-105750000D01*
X79411928Y-106250000D01*
X79424188Y-106374482D01*
X79424345Y-106375000D01*
X79424188Y-106375518D01*
X79411928Y-106500000D01*
X79411928Y-107000000D01*
X79424188Y-107124482D01*
X79424345Y-107125000D01*
X79424188Y-107125518D01*
X79411928Y-107250000D01*
X79411928Y-107750000D01*
X79424188Y-107874482D01*
X79424345Y-107875000D01*
X79424188Y-107875518D01*
X79411928Y-108000000D01*
X79411928Y-108500000D01*
X79424188Y-108624482D01*
X79424345Y-108625000D01*
X79424188Y-108625518D01*
X79411928Y-108750000D01*
X79411928Y-109250000D01*
X79424188Y-109374482D01*
X79424345Y-109375000D01*
X79424188Y-109375518D01*
X79411928Y-109500000D01*
X79411928Y-110000000D01*
X79424188Y-110124482D01*
X79424345Y-110125000D01*
X79424188Y-110125518D01*
X79411928Y-110250000D01*
X79411928Y-110750000D01*
X79424188Y-110874482D01*
X79424345Y-110875000D01*
X79424188Y-110875518D01*
X79411928Y-111000000D01*
X79411928Y-111290000D01*
X77794091Y-111290000D01*
X76035000Y-109530909D01*
X76035000Y-109398061D01*
X75995226Y-109198102D01*
X75917205Y-109009744D01*
X75803937Y-108840226D01*
X75659774Y-108696063D01*
X75490256Y-108582795D01*
X75301898Y-108504774D01*
X75101939Y-108465000D01*
X74898061Y-108465000D01*
X74698102Y-108504774D01*
X74509744Y-108582795D01*
X74340226Y-108696063D01*
X74196063Y-108840226D01*
X74082795Y-109009744D01*
X74004774Y-109198102D01*
X73965000Y-109398061D01*
X73965000Y-109601939D01*
X74004774Y-109801898D01*
X74082795Y-109990256D01*
X74196063Y-110159774D01*
X74340226Y-110303937D01*
X74509744Y-110417205D01*
X74638918Y-110470711D01*
X74609744Y-110482795D01*
X74440226Y-110596063D01*
X74296063Y-110740226D01*
X74182795Y-110909744D01*
X74104774Y-111098102D01*
X74065000Y-111298061D01*
X74065000Y-111371576D01*
X73898102Y-111404774D01*
X73709744Y-111482795D01*
X73540226Y-111596063D01*
X73396063Y-111740226D01*
X73282795Y-111909744D01*
X73204774Y-112098102D01*
X73165000Y-112298061D01*
X73165000Y-112501939D01*
X73196885Y-112662235D01*
X73075518Y-112674188D01*
X73075000Y-112674345D01*
X73074482Y-112674188D01*
X72950000Y-112661928D01*
X72450000Y-112661928D01*
X72325518Y-112674188D01*
X72205820Y-112710498D01*
X72095506Y-112769463D01*
X71998815Y-112848815D01*
X71919463Y-112945506D01*
X71860498Y-113055820D01*
X71824188Y-113175518D01*
X71811928Y-113300000D01*
X71811928Y-114500000D01*
X71824188Y-114624482D01*
X71860498Y-114744180D01*
X71919463Y-114854494D01*
X71990001Y-114940445D01*
X71990001Y-115265116D01*
X71986565Y-115300000D01*
X71990505Y-115340000D01*
X71627000Y-115340000D01*
X71627000Y-105330882D01*
X71700000Y-105338072D01*
X72200000Y-105338072D01*
X72324482Y-105325812D01*
X72325000Y-105325655D01*
X72325518Y-105325812D01*
X72450000Y-105338072D01*
X72950000Y-105338072D01*
X73074482Y-105325812D01*
X73075000Y-105325655D01*
X73075518Y-105325812D01*
X73200000Y-105338072D01*
X73700000Y-105338072D01*
X73824482Y-105325812D01*
X73825000Y-105325655D01*
X73825518Y-105325812D01*
X73950000Y-105338072D01*
X74450000Y-105338072D01*
X74574482Y-105325812D01*
X74575000Y-105325655D01*
X74575518Y-105325812D01*
X74700000Y-105338072D01*
X75200000Y-105338072D01*
X75324482Y-105325812D01*
X75325000Y-105325655D01*
X75325518Y-105325812D01*
X75450000Y-105338072D01*
X75950000Y-105338072D01*
X76074482Y-105325812D01*
X76075000Y-105325655D01*
X76075518Y-105325812D01*
X76200000Y-105338072D01*
X76700000Y-105338072D01*
X76824482Y-105325812D01*
X76825000Y-105325655D01*
X76825518Y-105325812D01*
X76950000Y-105338072D01*
X77450000Y-105338072D01*
X77574482Y-105325812D01*
X77575000Y-105325655D01*
X77575518Y-105325812D01*
X77700000Y-105338072D01*
X78200000Y-105338072D01*
X78324482Y-105325812D01*
X78325000Y-105325655D01*
X78325518Y-105325812D01*
X78450000Y-105338072D01*
X78950000Y-105338072D01*
X79074482Y-105325812D01*
X79075000Y-105325655D01*
X79075518Y-105325812D01*
G37*
%TD.AperFunction*%
D21*
X85034488Y-103148942D02*
X85143377Y-103281623D01*
X85276058Y-103390512D01*
X85389991Y-103451410D01*
X85389990Y-108065115D01*
X85386555Y-108099990D01*
X85389990Y-108134865D01*
X85389990Y-108134866D01*
X85400263Y-108239173D01*
X85440862Y-108373009D01*
X85506790Y-108496352D01*
X85595515Y-108604464D01*
X85622608Y-108626699D01*
X85790001Y-108794091D01*
X85790000Y-112705908D01*
X84630909Y-113865000D01*
X82353711Y-113865000D01*
X82259774Y-113771063D01*
X82090256Y-113657795D01*
X81901898Y-113579774D01*
X81701939Y-113540000D01*
X81498061Y-113540000D01*
X81298102Y-113579774D01*
X81109744Y-113657795D01*
X81088072Y-113672276D01*
X81088072Y-113300000D01*
X81075812Y-113175518D01*
X81039502Y-113055820D01*
X80980537Y-112945506D01*
X80933402Y-112888072D01*
X81250000Y-112888072D01*
X81374482Y-112875812D01*
X81494180Y-112839502D01*
X81604494Y-112780537D01*
X81690444Y-112710000D01*
X82465125Y-112710000D01*
X82500000Y-112713435D01*
X82534875Y-112710000D01*
X82534877Y-112710000D01*
X82639184Y-112699727D01*
X82773020Y-112659128D01*
X82896363Y-112593200D01*
X83004475Y-112504475D01*
X83026713Y-112477378D01*
X83252379Y-112251712D01*
X83279474Y-112229475D01*
X83368200Y-112121363D01*
X83434128Y-111998020D01*
X83474727Y-111864184D01*
X83485000Y-111759877D01*
X83485000Y-111759875D01*
X83488435Y-111725000D01*
X83485000Y-111690125D01*
X83485000Y-110506371D01*
X83561442Y-110465512D01*
X83694123Y-110356623D01*
X83803012Y-110223942D01*
X83883923Y-110072567D01*
X83933748Y-109908316D01*
X83950572Y-109737500D01*
X83950572Y-109328519D01*
X84302380Y-108976711D01*
X84329476Y-108954474D01*
X84418201Y-108846362D01*
X84484129Y-108723019D01*
X84524728Y-108589183D01*
X84535001Y-108484876D01*
X84535001Y-108484874D01*
X84538436Y-108449999D01*
X84535001Y-108415124D01*
X84535001Y-103544090D01*
X84998144Y-103080947D01*
X85034488Y-103148942D01*
%TA.AperFunction,Conductor*%
D22*
G36*
X85034488Y-103148942D02*
G01*
X85143377Y-103281623D01*
X85276058Y-103390512D01*
X85389991Y-103451410D01*
X85389990Y-108065115D01*
X85386555Y-108099990D01*
X85389990Y-108134865D01*
X85389990Y-108134866D01*
X85400263Y-108239173D01*
X85440862Y-108373009D01*
X85506790Y-108496352D01*
X85595515Y-108604464D01*
X85622608Y-108626699D01*
X85790001Y-108794091D01*
X85790000Y-112705908D01*
X84630909Y-113865000D01*
X82353711Y-113865000D01*
X82259774Y-113771063D01*
X82090256Y-113657795D01*
X81901898Y-113579774D01*
X81701939Y-113540000D01*
X81498061Y-113540000D01*
X81298102Y-113579774D01*
X81109744Y-113657795D01*
X81088072Y-113672276D01*
X81088072Y-113300000D01*
X81075812Y-113175518D01*
X81039502Y-113055820D01*
X80980537Y-112945506D01*
X80933402Y-112888072D01*
X81250000Y-112888072D01*
X81374482Y-112875812D01*
X81494180Y-112839502D01*
X81604494Y-112780537D01*
X81690444Y-112710000D01*
X82465125Y-112710000D01*
X82500000Y-112713435D01*
X82534875Y-112710000D01*
X82534877Y-112710000D01*
X82639184Y-112699727D01*
X82773020Y-112659128D01*
X82896363Y-112593200D01*
X83004475Y-112504475D01*
X83026713Y-112477378D01*
X83252379Y-112251712D01*
X83279474Y-112229475D01*
X83368200Y-112121363D01*
X83434128Y-111998020D01*
X83474727Y-111864184D01*
X83485000Y-111759877D01*
X83485000Y-111759875D01*
X83488435Y-111725000D01*
X83485000Y-111690125D01*
X83485000Y-110506371D01*
X83561442Y-110465512D01*
X83694123Y-110356623D01*
X83803012Y-110223942D01*
X83883923Y-110072567D01*
X83933748Y-109908316D01*
X83950572Y-109737500D01*
X83950572Y-109328519D01*
X84302380Y-108976711D01*
X84329476Y-108954474D01*
X84418201Y-108846362D01*
X84484129Y-108723019D01*
X84524728Y-108589183D01*
X84535001Y-108484876D01*
X84535001Y-108484874D01*
X84538436Y-108449999D01*
X84535001Y-108415124D01*
X84535001Y-103544090D01*
X84998144Y-103080947D01*
X85034488Y-103148942D01*
G37*
%TD.AperFunction*%
D21*
X80396063Y-96759774D02*
X80540226Y-96903937D01*
X80709744Y-97017205D01*
X80898102Y-97095226D01*
X81098061Y-97135000D01*
X81230909Y-97135000D01*
X81310787Y-97214878D01*
X81333024Y-97241974D01*
X81441136Y-97330699D01*
X81564479Y-97396627D01*
X81698315Y-97437226D01*
X81802622Y-97447499D01*
X81802624Y-97447499D01*
X81837499Y-97450934D01*
X81872374Y-97447499D01*
X84768410Y-97447499D01*
X86698294Y-99377384D01*
X86720527Y-99404475D01*
X86757710Y-99434991D01*
X86760498Y-99444180D01*
X86819463Y-99554494D01*
X86898815Y-99651185D01*
X86995506Y-99730537D01*
X87105820Y-99789502D01*
X87182996Y-99812913D01*
X87118409Y-99877500D01*
X86979645Y-99877500D01*
X86965512Y-99851058D01*
X86856623Y-99718377D01*
X86723942Y-99609488D01*
X86572567Y-99528577D01*
X86408316Y-99478752D01*
X86237500Y-99461928D01*
X85762500Y-99461928D01*
X85591684Y-99478752D01*
X85427433Y-99528577D01*
X85276058Y-99609488D01*
X85143377Y-99718377D01*
X85034488Y-99851058D01*
X84953577Y-100002433D01*
X84903752Y-100166684D01*
X84886928Y-100337500D01*
X84886928Y-100837500D01*
X84903752Y-101008316D01*
X84940721Y-101130187D01*
X83347618Y-102723291D01*
X83320526Y-102745525D01*
X83231801Y-102853637D01*
X83165873Y-102976980D01*
X83125274Y-103110816D01*
X83116050Y-103204474D01*
X83111566Y-103249999D01*
X83115001Y-103284874D01*
X83115002Y-108155907D01*
X82883981Y-108386928D01*
X82475000Y-108386928D01*
X82304184Y-108403752D01*
X82139933Y-108453577D01*
X81988558Y-108534488D01*
X81875949Y-108626905D01*
X81875812Y-108625518D01*
X81875655Y-108625000D01*
X81875812Y-108624482D01*
X81888072Y-108500000D01*
X81888072Y-108017937D01*
X81904475Y-108004475D01*
X81926712Y-107977379D01*
X82877398Y-107026694D01*
X82904483Y-107004466D01*
X82926713Y-106977379D01*
X82926716Y-106977376D01*
X82984636Y-106906800D01*
X82993209Y-106896354D01*
X83059137Y-106773011D01*
X83099736Y-106639175D01*
X83110009Y-106534868D01*
X83110009Y-106534867D01*
X83113444Y-106499992D01*
X83110009Y-106465117D01*
X83110009Y-101734884D01*
X83113444Y-101700009D01*
X83108166Y-101646423D01*
X83099736Y-101560825D01*
X83059137Y-101426989D01*
X82993209Y-101303646D01*
X82904484Y-101195534D01*
X82877393Y-101173301D01*
X80326712Y-98622621D01*
X80304475Y-98595525D01*
X80196363Y-98506800D01*
X80073020Y-98440872D01*
X79939184Y-98400273D01*
X79900561Y-98396469D01*
X79435000Y-97930909D01*
X79435000Y-97798061D01*
X79395226Y-97598102D01*
X79392359Y-97591181D01*
X79498022Y-97559128D01*
X79621365Y-97493200D01*
X79729477Y-97404475D01*
X79751714Y-97377379D01*
X80202389Y-96926705D01*
X80229475Y-96904476D01*
X80251705Y-96877389D01*
X80251708Y-96877386D01*
X80318200Y-96796366D01*
X80329205Y-96775776D01*
X80363671Y-96711296D01*
X80396063Y-96759774D01*
%TA.AperFunction,Conductor*%
D22*
G36*
X80396063Y-96759774D02*
G01*
X80540226Y-96903937D01*
X80709744Y-97017205D01*
X80898102Y-97095226D01*
X81098061Y-97135000D01*
X81230909Y-97135000D01*
X81310787Y-97214878D01*
X81333024Y-97241974D01*
X81441136Y-97330699D01*
X81564479Y-97396627D01*
X81698315Y-97437226D01*
X81802622Y-97447499D01*
X81802624Y-97447499D01*
X81837499Y-97450934D01*
X81872374Y-97447499D01*
X84768410Y-97447499D01*
X86698294Y-99377384D01*
X86720527Y-99404475D01*
X86757710Y-99434991D01*
X86760498Y-99444180D01*
X86819463Y-99554494D01*
X86898815Y-99651185D01*
X86995506Y-99730537D01*
X87105820Y-99789502D01*
X87182996Y-99812913D01*
X87118409Y-99877500D01*
X86979645Y-99877500D01*
X86965512Y-99851058D01*
X86856623Y-99718377D01*
X86723942Y-99609488D01*
X86572567Y-99528577D01*
X86408316Y-99478752D01*
X86237500Y-99461928D01*
X85762500Y-99461928D01*
X85591684Y-99478752D01*
X85427433Y-99528577D01*
X85276058Y-99609488D01*
X85143377Y-99718377D01*
X85034488Y-99851058D01*
X84953577Y-100002433D01*
X84903752Y-100166684D01*
X84886928Y-100337500D01*
X84886928Y-100837500D01*
X84903752Y-101008316D01*
X84940721Y-101130187D01*
X83347618Y-102723291D01*
X83320526Y-102745525D01*
X83231801Y-102853637D01*
X83165873Y-102976980D01*
X83125274Y-103110816D01*
X83116050Y-103204474D01*
X83111566Y-103249999D01*
X83115001Y-103284874D01*
X83115002Y-108155907D01*
X82883981Y-108386928D01*
X82475000Y-108386928D01*
X82304184Y-108403752D01*
X82139933Y-108453577D01*
X81988558Y-108534488D01*
X81875949Y-108626905D01*
X81875812Y-108625518D01*
X81875655Y-108625000D01*
X81875812Y-108624482D01*
X81888072Y-108500000D01*
X81888072Y-108017937D01*
X81904475Y-108004475D01*
X81926712Y-107977379D01*
X82877398Y-107026694D01*
X82904483Y-107004466D01*
X82926713Y-106977379D01*
X82926716Y-106977376D01*
X82984636Y-106906800D01*
X82993209Y-106896354D01*
X83059137Y-106773011D01*
X83099736Y-106639175D01*
X83110009Y-106534868D01*
X83110009Y-106534867D01*
X83113444Y-106499992D01*
X83110009Y-106465117D01*
X83110009Y-101734884D01*
X83113444Y-101700009D01*
X83108166Y-101646423D01*
X83099736Y-101560825D01*
X83059137Y-101426989D01*
X82993209Y-101303646D01*
X82904484Y-101195534D01*
X82877393Y-101173301D01*
X80326712Y-98622621D01*
X80304475Y-98595525D01*
X80196363Y-98506800D01*
X80073020Y-98440872D01*
X79939184Y-98400273D01*
X79900561Y-98396469D01*
X79435000Y-97930909D01*
X79435000Y-97798061D01*
X79395226Y-97598102D01*
X79392359Y-97591181D01*
X79498022Y-97559128D01*
X79621365Y-97493200D01*
X79729477Y-97404475D01*
X79751714Y-97377379D01*
X80202389Y-96926705D01*
X80229475Y-96904476D01*
X80251705Y-96877389D01*
X80251708Y-96877386D01*
X80318200Y-96796366D01*
X80329205Y-96775776D01*
X80363671Y-96711296D01*
X80396063Y-96759774D01*
G37*
%TD.AperFunction*%
D21*
X90392775Y-100896867D02*
X90403752Y-101008316D01*
X90453577Y-101172567D01*
X90534488Y-101323942D01*
X90643377Y-101456623D01*
X90696232Y-101500000D01*
X90643377Y-101543377D01*
X90534488Y-101676058D01*
X90453577Y-101827433D01*
X90403752Y-101991684D01*
X90386928Y-102162500D01*
X90386928Y-102662500D01*
X90403752Y-102833316D01*
X90453577Y-102997567D01*
X90534488Y-103148942D01*
X90613578Y-103245312D01*
X90599742Y-103262171D01*
X90526916Y-103398418D01*
X90482071Y-103546255D01*
X90466928Y-103700000D01*
X90466928Y-105350000D01*
X90482071Y-105503745D01*
X90526916Y-105651582D01*
X90599742Y-105787829D01*
X90697749Y-105907251D01*
X90817171Y-106005258D01*
X90953418Y-106078084D01*
X91101255Y-106122929D01*
X91255000Y-106138072D01*
X91555000Y-106138072D01*
X91708745Y-106122929D01*
X91856582Y-106078084D01*
X91992829Y-106005258D01*
X92112251Y-105907251D01*
X92210258Y-105787829D01*
X92283084Y-105651582D01*
X92327929Y-105503745D01*
X92343072Y-105350000D01*
X92343072Y-103700000D01*
X92327929Y-103546255D01*
X92283084Y-103398418D01*
X92262114Y-103359185D01*
X92356623Y-103281623D01*
X92461928Y-103153309D01*
X92461928Y-103200000D01*
X92474188Y-103324482D01*
X92510498Y-103444180D01*
X92569463Y-103554494D01*
X92648815Y-103651185D01*
X92745506Y-103730537D01*
X92790000Y-103754320D01*
X92790000Y-104359876D01*
X92790001Y-104359886D01*
X92790000Y-106465123D01*
X92790000Y-107085908D01*
X91920062Y-107955847D01*
X91856582Y-107921916D01*
X91708745Y-107877071D01*
X91555000Y-107861928D01*
X91255000Y-107861928D01*
X91101255Y-107877071D01*
X90953418Y-107921916D01*
X90817171Y-107994742D01*
X90770000Y-108033454D01*
X90722829Y-107994742D01*
X90586582Y-107921916D01*
X90438745Y-107877071D01*
X90285000Y-107861928D01*
X90152225Y-107861928D01*
X90150010Y-107839434D01*
X90139737Y-107735127D01*
X90099138Y-107601291D01*
X90033210Y-107477948D01*
X89944485Y-107369836D01*
X89917394Y-107347603D01*
X88592414Y-106022626D01*
X88570173Y-105995525D01*
X88462061Y-105906800D01*
X88338718Y-105840872D01*
X88204882Y-105800273D01*
X88100575Y-105790000D01*
X88100573Y-105790000D01*
X88065698Y-105786565D01*
X88030823Y-105790000D01*
X87794091Y-105790000D01*
X87710000Y-105705909D01*
X87710000Y-102794091D01*
X87776707Y-102727384D01*
X90000000Y-100504092D01*
X90392775Y-100896867D01*
%TA.AperFunction,Conductor*%
D22*
G36*
X90392775Y-100896867D02*
G01*
X90403752Y-101008316D01*
X90453577Y-101172567D01*
X90534488Y-101323942D01*
X90643377Y-101456623D01*
X90696232Y-101500000D01*
X90643377Y-101543377D01*
X90534488Y-101676058D01*
X90453577Y-101827433D01*
X90403752Y-101991684D01*
X90386928Y-102162500D01*
X90386928Y-102662500D01*
X90403752Y-102833316D01*
X90453577Y-102997567D01*
X90534488Y-103148942D01*
X90613578Y-103245312D01*
X90599742Y-103262171D01*
X90526916Y-103398418D01*
X90482071Y-103546255D01*
X90466928Y-103700000D01*
X90466928Y-105350000D01*
X90482071Y-105503745D01*
X90526916Y-105651582D01*
X90599742Y-105787829D01*
X90697749Y-105907251D01*
X90817171Y-106005258D01*
X90953418Y-106078084D01*
X91101255Y-106122929D01*
X91255000Y-106138072D01*
X91555000Y-106138072D01*
X91708745Y-106122929D01*
X91856582Y-106078084D01*
X91992829Y-106005258D01*
X92112251Y-105907251D01*
X92210258Y-105787829D01*
X92283084Y-105651582D01*
X92327929Y-105503745D01*
X92343072Y-105350000D01*
X92343072Y-103700000D01*
X92327929Y-103546255D01*
X92283084Y-103398418D01*
X92262114Y-103359185D01*
X92356623Y-103281623D01*
X92461928Y-103153309D01*
X92461928Y-103200000D01*
X92474188Y-103324482D01*
X92510498Y-103444180D01*
X92569463Y-103554494D01*
X92648815Y-103651185D01*
X92745506Y-103730537D01*
X92790000Y-103754320D01*
X92790000Y-104359876D01*
X92790001Y-104359886D01*
X92790000Y-106465123D01*
X92790000Y-107085908D01*
X91920062Y-107955847D01*
X91856582Y-107921916D01*
X91708745Y-107877071D01*
X91555000Y-107861928D01*
X91255000Y-107861928D01*
X91101255Y-107877071D01*
X90953418Y-107921916D01*
X90817171Y-107994742D01*
X90770000Y-108033454D01*
X90722829Y-107994742D01*
X90586582Y-107921916D01*
X90438745Y-107877071D01*
X90285000Y-107861928D01*
X90152225Y-107861928D01*
X90150010Y-107839434D01*
X90139737Y-107735127D01*
X90099138Y-107601291D01*
X90033210Y-107477948D01*
X89944485Y-107369836D01*
X89917394Y-107347603D01*
X88592414Y-106022626D01*
X88570173Y-105995525D01*
X88462061Y-105906800D01*
X88338718Y-105840872D01*
X88204882Y-105800273D01*
X88100575Y-105790000D01*
X88100573Y-105790000D01*
X88065698Y-105786565D01*
X88030823Y-105790000D01*
X87794091Y-105790000D01*
X87710000Y-105705909D01*
X87710000Y-102794091D01*
X87776707Y-102727384D01*
X90000000Y-100504092D01*
X90392775Y-100896867D01*
G37*
%TD.AperFunction*%
D21*
X71936928Y-97356250D02*
X71953392Y-97523408D01*
X72002150Y-97684142D01*
X72081329Y-97832275D01*
X72187885Y-97962115D01*
X72317725Y-98068671D01*
X72465858Y-98147850D01*
X72626592Y-98196608D01*
X72793750Y-98213072D01*
X73231250Y-98213072D01*
X73398408Y-98196608D01*
X73559142Y-98147850D01*
X73707275Y-98068671D01*
X73800000Y-97992574D01*
X73877500Y-98056177D01*
X73877501Y-98333717D01*
X73876058Y-98334488D01*
X73743377Y-98443377D01*
X73634488Y-98576058D01*
X73553577Y-98727433D01*
X73503752Y-98891684D01*
X73486928Y-99062500D01*
X73486928Y-99537500D01*
X73503752Y-99708316D01*
X73553577Y-99872567D01*
X73634488Y-100023942D01*
X73743377Y-100156623D01*
X73876058Y-100265512D01*
X74027433Y-100346423D01*
X74191684Y-100396248D01*
X74362500Y-100413072D01*
X74862500Y-100413072D01*
X75033316Y-100396248D01*
X75197567Y-100346423D01*
X75348942Y-100265512D01*
X75432899Y-100196610D01*
X75440226Y-100203937D01*
X75609744Y-100317205D01*
X75798102Y-100395226D01*
X75998061Y-100435000D01*
X76201939Y-100435000D01*
X76401898Y-100395226D01*
X76590256Y-100317205D01*
X76759774Y-100203937D01*
X76779810Y-100183901D01*
X77673288Y-101077379D01*
X77695525Y-101104475D01*
X77803637Y-101193200D01*
X77926980Y-101259128D01*
X78060816Y-101299727D01*
X78165123Y-101310000D01*
X78165125Y-101310000D01*
X78200000Y-101313435D01*
X78234875Y-101310000D01*
X79405909Y-101310000D01*
X80490000Y-102394092D01*
X80490001Y-104361928D01*
X80338072Y-104361928D01*
X80338072Y-103500000D01*
X80325812Y-103375518D01*
X80289502Y-103255820D01*
X80230537Y-103145506D01*
X80151185Y-103048815D01*
X80054494Y-102969463D01*
X79944180Y-102910498D01*
X79824482Y-102874188D01*
X79700000Y-102861928D01*
X79200000Y-102861928D01*
X79075518Y-102874188D01*
X79075000Y-102874345D01*
X79074482Y-102874188D01*
X78950000Y-102861928D01*
X78450000Y-102861928D01*
X78325518Y-102874188D01*
X78325000Y-102874345D01*
X78324482Y-102874188D01*
X78200000Y-102861928D01*
X77700000Y-102861928D01*
X77575518Y-102874188D01*
X77575000Y-102874345D01*
X77574482Y-102874188D01*
X77450000Y-102861928D01*
X76950000Y-102861928D01*
X76825518Y-102874188D01*
X76825000Y-102874345D01*
X76824482Y-102874188D01*
X76700000Y-102861928D01*
X76200000Y-102861928D01*
X76075518Y-102874188D01*
X76075000Y-102874345D01*
X76074482Y-102874188D01*
X75950000Y-102861928D01*
X75450000Y-102861928D01*
X75325518Y-102874188D01*
X75325000Y-102874345D01*
X75324482Y-102874188D01*
X75200000Y-102861928D01*
X74700000Y-102861928D01*
X74575518Y-102874188D01*
X74575000Y-102874345D01*
X74574482Y-102874188D01*
X74450000Y-102861928D01*
X73950000Y-102861928D01*
X73825518Y-102874188D01*
X73825000Y-102874345D01*
X73824482Y-102874188D01*
X73700000Y-102861928D01*
X73200000Y-102861928D01*
X73075518Y-102874188D01*
X73075000Y-102874345D01*
X73074482Y-102874188D01*
X72950000Y-102861928D01*
X72450000Y-102861928D01*
X72325518Y-102874188D01*
X72325000Y-102874345D01*
X72324482Y-102874188D01*
X72200000Y-102861928D01*
X71700000Y-102861928D01*
X71575518Y-102874188D01*
X71575000Y-102874345D01*
X71574482Y-102874188D01*
X71450000Y-102861928D01*
X71160000Y-102861928D01*
X71160000Y-102244091D01*
X71477388Y-101926704D01*
X71504474Y-101904475D01*
X71526704Y-101877388D01*
X71526707Y-101877385D01*
X71593199Y-101796365D01*
X71616179Y-101753372D01*
X71659128Y-101673020D01*
X71699727Y-101539184D01*
X71710000Y-101434877D01*
X71710000Y-101434876D01*
X71713435Y-101400001D01*
X71710000Y-101365126D01*
X71710000Y-99253711D01*
X71803937Y-99159774D01*
X71917205Y-98990256D01*
X71995226Y-98801898D01*
X72035000Y-98601939D01*
X72035000Y-98398061D01*
X71995226Y-98198102D01*
X71917205Y-98009744D01*
X71803937Y-97840226D01*
X71659774Y-97696063D01*
X71490256Y-97582795D01*
X71301898Y-97504774D01*
X71101939Y-97465000D01*
X71039091Y-97465000D01*
X71294092Y-97210000D01*
X71936928Y-97210000D01*
X71936928Y-97356250D01*
%TA.AperFunction,Conductor*%
D22*
G36*
X71936928Y-97356250D02*
G01*
X71953392Y-97523408D01*
X72002150Y-97684142D01*
X72081329Y-97832275D01*
X72187885Y-97962115D01*
X72317725Y-98068671D01*
X72465858Y-98147850D01*
X72626592Y-98196608D01*
X72793750Y-98213072D01*
X73231250Y-98213072D01*
X73398408Y-98196608D01*
X73559142Y-98147850D01*
X73707275Y-98068671D01*
X73800000Y-97992574D01*
X73877500Y-98056177D01*
X73877501Y-98333717D01*
X73876058Y-98334488D01*
X73743377Y-98443377D01*
X73634488Y-98576058D01*
X73553577Y-98727433D01*
X73503752Y-98891684D01*
X73486928Y-99062500D01*
X73486928Y-99537500D01*
X73503752Y-99708316D01*
X73553577Y-99872567D01*
X73634488Y-100023942D01*
X73743377Y-100156623D01*
X73876058Y-100265512D01*
X74027433Y-100346423D01*
X74191684Y-100396248D01*
X74362500Y-100413072D01*
X74862500Y-100413072D01*
X75033316Y-100396248D01*
X75197567Y-100346423D01*
X75348942Y-100265512D01*
X75432899Y-100196610D01*
X75440226Y-100203937D01*
X75609744Y-100317205D01*
X75798102Y-100395226D01*
X75998061Y-100435000D01*
X76201939Y-100435000D01*
X76401898Y-100395226D01*
X76590256Y-100317205D01*
X76759774Y-100203937D01*
X76779810Y-100183901D01*
X77673288Y-101077379D01*
X77695525Y-101104475D01*
X77803637Y-101193200D01*
X77926980Y-101259128D01*
X78060816Y-101299727D01*
X78165123Y-101310000D01*
X78165125Y-101310000D01*
X78200000Y-101313435D01*
X78234875Y-101310000D01*
X79405909Y-101310000D01*
X80490000Y-102394092D01*
X80490001Y-104361928D01*
X80338072Y-104361928D01*
X80338072Y-103500000D01*
X80325812Y-103375518D01*
X80289502Y-103255820D01*
X80230537Y-103145506D01*
X80151185Y-103048815D01*
X80054494Y-102969463D01*
X79944180Y-102910498D01*
X79824482Y-102874188D01*
X79700000Y-102861928D01*
X79200000Y-102861928D01*
X79075518Y-102874188D01*
X79075000Y-102874345D01*
X79074482Y-102874188D01*
X78950000Y-102861928D01*
X78450000Y-102861928D01*
X78325518Y-102874188D01*
X78325000Y-102874345D01*
X78324482Y-102874188D01*
X78200000Y-102861928D01*
X77700000Y-102861928D01*
X77575518Y-102874188D01*
X77575000Y-102874345D01*
X77574482Y-102874188D01*
X77450000Y-102861928D01*
X76950000Y-102861928D01*
X76825518Y-102874188D01*
X76825000Y-102874345D01*
X76824482Y-102874188D01*
X76700000Y-102861928D01*
X76200000Y-102861928D01*
X76075518Y-102874188D01*
X76075000Y-102874345D01*
X76074482Y-102874188D01*
X75950000Y-102861928D01*
X75450000Y-102861928D01*
X75325518Y-102874188D01*
X75325000Y-102874345D01*
X75324482Y-102874188D01*
X75200000Y-102861928D01*
X74700000Y-102861928D01*
X74575518Y-102874188D01*
X74575000Y-102874345D01*
X74574482Y-102874188D01*
X74450000Y-102861928D01*
X73950000Y-102861928D01*
X73825518Y-102874188D01*
X73825000Y-102874345D01*
X73824482Y-102874188D01*
X73700000Y-102861928D01*
X73200000Y-102861928D01*
X73075518Y-102874188D01*
X73075000Y-102874345D01*
X73074482Y-102874188D01*
X72950000Y-102861928D01*
X72450000Y-102861928D01*
X72325518Y-102874188D01*
X72325000Y-102874345D01*
X72324482Y-102874188D01*
X72200000Y-102861928D01*
X71700000Y-102861928D01*
X71575518Y-102874188D01*
X71575000Y-102874345D01*
X71574482Y-102874188D01*
X71450000Y-102861928D01*
X71160000Y-102861928D01*
X71160000Y-102244091D01*
X71477388Y-101926704D01*
X71504474Y-101904475D01*
X71526704Y-101877388D01*
X71526707Y-101877385D01*
X71593199Y-101796365D01*
X71616179Y-101753372D01*
X71659128Y-101673020D01*
X71699727Y-101539184D01*
X71710000Y-101434877D01*
X71710000Y-101434876D01*
X71713435Y-101400001D01*
X71710000Y-101365126D01*
X71710000Y-99253711D01*
X71803937Y-99159774D01*
X71917205Y-98990256D01*
X71995226Y-98801898D01*
X72035000Y-98601939D01*
X72035000Y-98398061D01*
X71995226Y-98198102D01*
X71917205Y-98009744D01*
X71803937Y-97840226D01*
X71659774Y-97696063D01*
X71490256Y-97582795D01*
X71301898Y-97504774D01*
X71101939Y-97465000D01*
X71039091Y-97465000D01*
X71294092Y-97210000D01*
X71936928Y-97210000D01*
X71936928Y-97356250D01*
G37*
%TD.AperFunction*%
D21*
X67898102Y-100195226D02*
X68098061Y-100235000D01*
X68111928Y-100235000D01*
X68111928Y-100550000D01*
X68124188Y-100674482D01*
X68160498Y-100794180D01*
X68219463Y-100904494D01*
X68298815Y-101001185D01*
X68395506Y-101080537D01*
X68505820Y-101139502D01*
X68625518Y-101175812D01*
X68750000Y-101188072D01*
X68990000Y-101188072D01*
X68990000Y-101734876D01*
X68990001Y-101734886D01*
X68990000Y-102465119D01*
X68990000Y-103059556D01*
X68919463Y-103145506D01*
X68860498Y-103255820D01*
X68824188Y-103375518D01*
X68811928Y-103500000D01*
X68811928Y-103973000D01*
X67160000Y-103973000D01*
X67160000Y-100238072D01*
X67650000Y-100238072D01*
X67774482Y-100225812D01*
X67888467Y-100191235D01*
X67898102Y-100195226D01*
%TA.AperFunction,Conductor*%
D22*
G36*
X67898102Y-100195226D02*
G01*
X68098061Y-100235000D01*
X68111928Y-100235000D01*
X68111928Y-100550000D01*
X68124188Y-100674482D01*
X68160498Y-100794180D01*
X68219463Y-100904494D01*
X68298815Y-101001185D01*
X68395506Y-101080537D01*
X68505820Y-101139502D01*
X68625518Y-101175812D01*
X68750000Y-101188072D01*
X68990000Y-101188072D01*
X68990000Y-101734876D01*
X68990001Y-101734886D01*
X68990000Y-102465119D01*
X68990000Y-103059556D01*
X68919463Y-103145506D01*
X68860498Y-103255820D01*
X68824188Y-103375518D01*
X68811928Y-103500000D01*
X68811928Y-103973000D01*
X67160000Y-103973000D01*
X67160000Y-100238072D01*
X67650000Y-100238072D01*
X67774482Y-100225812D01*
X67888467Y-100191235D01*
X67898102Y-100195226D01*
G37*
%TD.AperFunction*%
D21*
X91294591Y-93702678D02*
X91156615Y-93776427D01*
X91035678Y-93875678D01*
X90936427Y-93996615D01*
X90862678Y-94134591D01*
X90817263Y-94284304D01*
X90801928Y-94440000D01*
X90801928Y-94760000D01*
X90817263Y-94915696D01*
X90862678Y-95065409D01*
X90936427Y-95203385D01*
X91035678Y-95324322D01*
X91156615Y-95423573D01*
X91294591Y-95497322D01*
X91444304Y-95542737D01*
X91600000Y-95558072D01*
X91995000Y-95558072D01*
X92150696Y-95542737D01*
X92300409Y-95497322D01*
X92438385Y-95423573D01*
X92461928Y-95404252D01*
X92461928Y-96000000D01*
X92474188Y-96124482D01*
X92510498Y-96244180D01*
X92569463Y-96354494D01*
X92648815Y-96451185D01*
X92745506Y-96530537D01*
X92855820Y-96589502D01*
X92975518Y-96625812D01*
X93100000Y-96638072D01*
X93590001Y-96638072D01*
X93590000Y-98065125D01*
X93586565Y-98100000D01*
X93590000Y-98134875D01*
X93590000Y-98134876D01*
X93600273Y-98239183D01*
X93640872Y-98373019D01*
X93706800Y-98496362D01*
X93795525Y-98604474D01*
X93822617Y-98626708D01*
X94765000Y-99569092D01*
X94765000Y-99701939D01*
X94804774Y-99901898D01*
X94882795Y-100090256D01*
X94972059Y-100223849D01*
X94233981Y-100961928D01*
X93100000Y-100961928D01*
X92975518Y-100974188D01*
X92855820Y-101010498D01*
X92745506Y-101069463D01*
X92648815Y-101148815D01*
X92569463Y-101245506D01*
X92510498Y-101355820D01*
X92474188Y-101475518D01*
X92461928Y-101600000D01*
X92461928Y-101671691D01*
X92356623Y-101543377D01*
X92303768Y-101500000D01*
X92356623Y-101456623D01*
X92465512Y-101323942D01*
X92546423Y-101172567D01*
X92596248Y-101008316D01*
X92613072Y-100837500D01*
X92613072Y-100337500D01*
X92596248Y-100166684D01*
X92546423Y-100002433D01*
X92465512Y-99851058D01*
X92356623Y-99718377D01*
X92223942Y-99609488D01*
X92072567Y-99528577D01*
X91908316Y-99478752D01*
X91737500Y-99461928D01*
X91262500Y-99461928D01*
X91091684Y-99478752D01*
X91008175Y-99504084D01*
X90710000Y-99205909D01*
X90710000Y-96589872D01*
X90713435Y-96554997D01*
X90708688Y-96506800D01*
X90699727Y-96415814D01*
X90659128Y-96281978D01*
X90593200Y-96158635D01*
X90504475Y-96050523D01*
X90477379Y-96028286D01*
X90288072Y-95838979D01*
X90288072Y-95800000D01*
X90275812Y-95675518D01*
X90239502Y-95555820D01*
X90180537Y-95445506D01*
X90101185Y-95348815D01*
X90004494Y-95269463D01*
X89894180Y-95210498D01*
X89774482Y-95174188D01*
X89650000Y-95161928D01*
X89250000Y-95161928D01*
X89125518Y-95174188D01*
X89005820Y-95210498D01*
X88895506Y-95269463D01*
X88798815Y-95348815D01*
X88719463Y-95445506D01*
X88660498Y-95555820D01*
X88624188Y-95675518D01*
X88611928Y-95800000D01*
X88611928Y-96111928D01*
X87300000Y-96111928D01*
X87175518Y-96124188D01*
X87055820Y-96160498D01*
X86945506Y-96219463D01*
X86848815Y-96298815D01*
X86769463Y-96395506D01*
X86710498Y-96505820D01*
X86674188Y-96625518D01*
X86661928Y-96750000D01*
X86661928Y-97332834D01*
X85589213Y-96260120D01*
X85566976Y-96233024D01*
X85458864Y-96144299D01*
X85335521Y-96078371D01*
X85201685Y-96037772D01*
X85097378Y-96027499D01*
X85097376Y-96027499D01*
X85062501Y-96024064D01*
X85027626Y-96027499D01*
X82235000Y-96027499D01*
X82235000Y-95998061D01*
X82195226Y-95798102D01*
X82117205Y-95609744D01*
X82003937Y-95440226D01*
X81859774Y-95296063D01*
X81694317Y-95185508D01*
X81815990Y-95003411D01*
X81927932Y-94733158D01*
X81985000Y-94446260D01*
X81985000Y-94153740D01*
X81927932Y-93866842D01*
X81842256Y-93660000D01*
X91435281Y-93660000D01*
X91294591Y-93702678D01*
%TA.AperFunction,Conductor*%
D22*
G36*
X91294591Y-93702678D02*
G01*
X91156615Y-93776427D01*
X91035678Y-93875678D01*
X90936427Y-93996615D01*
X90862678Y-94134591D01*
X90817263Y-94284304D01*
X90801928Y-94440000D01*
X90801928Y-94760000D01*
X90817263Y-94915696D01*
X90862678Y-95065409D01*
X90936427Y-95203385D01*
X91035678Y-95324322D01*
X91156615Y-95423573D01*
X91294591Y-95497322D01*
X91444304Y-95542737D01*
X91600000Y-95558072D01*
X91995000Y-95558072D01*
X92150696Y-95542737D01*
X92300409Y-95497322D01*
X92438385Y-95423573D01*
X92461928Y-95404252D01*
X92461928Y-96000000D01*
X92474188Y-96124482D01*
X92510498Y-96244180D01*
X92569463Y-96354494D01*
X92648815Y-96451185D01*
X92745506Y-96530537D01*
X92855820Y-96589502D01*
X92975518Y-96625812D01*
X93100000Y-96638072D01*
X93590001Y-96638072D01*
X93590000Y-98065125D01*
X93586565Y-98100000D01*
X93590000Y-98134875D01*
X93590000Y-98134876D01*
X93600273Y-98239183D01*
X93640872Y-98373019D01*
X93706800Y-98496362D01*
X93795525Y-98604474D01*
X93822617Y-98626708D01*
X94765000Y-99569092D01*
X94765000Y-99701939D01*
X94804774Y-99901898D01*
X94882795Y-100090256D01*
X94972059Y-100223849D01*
X94233981Y-100961928D01*
X93100000Y-100961928D01*
X92975518Y-100974188D01*
X92855820Y-101010498D01*
X92745506Y-101069463D01*
X92648815Y-101148815D01*
X92569463Y-101245506D01*
X92510498Y-101355820D01*
X92474188Y-101475518D01*
X92461928Y-101600000D01*
X92461928Y-101671691D01*
X92356623Y-101543377D01*
X92303768Y-101500000D01*
X92356623Y-101456623D01*
X92465512Y-101323942D01*
X92546423Y-101172567D01*
X92596248Y-101008316D01*
X92613072Y-100837500D01*
X92613072Y-100337500D01*
X92596248Y-100166684D01*
X92546423Y-100002433D01*
X92465512Y-99851058D01*
X92356623Y-99718377D01*
X92223942Y-99609488D01*
X92072567Y-99528577D01*
X91908316Y-99478752D01*
X91737500Y-99461928D01*
X91262500Y-99461928D01*
X91091684Y-99478752D01*
X91008175Y-99504084D01*
X90710000Y-99205909D01*
X90710000Y-96589872D01*
X90713435Y-96554997D01*
X90708688Y-96506800D01*
X90699727Y-96415814D01*
X90659128Y-96281978D01*
X90593200Y-96158635D01*
X90504475Y-96050523D01*
X90477379Y-96028286D01*
X90288072Y-95838979D01*
X90288072Y-95800000D01*
X90275812Y-95675518D01*
X90239502Y-95555820D01*
X90180537Y-95445506D01*
X90101185Y-95348815D01*
X90004494Y-95269463D01*
X89894180Y-95210498D01*
X89774482Y-95174188D01*
X89650000Y-95161928D01*
X89250000Y-95161928D01*
X89125518Y-95174188D01*
X89005820Y-95210498D01*
X88895506Y-95269463D01*
X88798815Y-95348815D01*
X88719463Y-95445506D01*
X88660498Y-95555820D01*
X88624188Y-95675518D01*
X88611928Y-95800000D01*
X88611928Y-96111928D01*
X87300000Y-96111928D01*
X87175518Y-96124188D01*
X87055820Y-96160498D01*
X86945506Y-96219463D01*
X86848815Y-96298815D01*
X86769463Y-96395506D01*
X86710498Y-96505820D01*
X86674188Y-96625518D01*
X86661928Y-96750000D01*
X86661928Y-97332834D01*
X85589213Y-96260120D01*
X85566976Y-96233024D01*
X85458864Y-96144299D01*
X85335521Y-96078371D01*
X85201685Y-96037772D01*
X85097378Y-96027499D01*
X85097376Y-96027499D01*
X85062501Y-96024064D01*
X85027626Y-96027499D01*
X82235000Y-96027499D01*
X82235000Y-95998061D01*
X82195226Y-95798102D01*
X82117205Y-95609744D01*
X82003937Y-95440226D01*
X81859774Y-95296063D01*
X81694317Y-95185508D01*
X81815990Y-95003411D01*
X81927932Y-94733158D01*
X81985000Y-94446260D01*
X81985000Y-94153740D01*
X81927932Y-93866842D01*
X81842256Y-93660000D01*
X91435281Y-93660000D01*
X91294591Y-93702678D01*
G37*
%TD.AperFunction*%
D21*
X68912068Y-93866842D02*
X68855000Y-94153740D01*
X68855000Y-94446260D01*
X68912068Y-94733158D01*
X69024010Y-95003411D01*
X69186525Y-95246632D01*
X69320350Y-95380457D01*
X69198102Y-95404774D01*
X69009744Y-95482795D01*
X68840226Y-95596063D01*
X68746289Y-95690000D01*
X68732374Y-95690000D01*
X68697499Y-95686565D01*
X68662624Y-95690000D01*
X68662623Y-95690000D01*
X68558316Y-95700273D01*
X68424480Y-95740872D01*
X68422504Y-95741928D01*
X68200000Y-95741928D01*
X68044304Y-95757263D01*
X67894591Y-95802678D01*
X67800000Y-95853237D01*
X67705409Y-95802678D01*
X67555696Y-95757263D01*
X67400000Y-95741928D01*
X67160000Y-95741928D01*
X67160000Y-93660000D01*
X68997744Y-93660000D01*
X68912068Y-93866842D01*
%TA.AperFunction,Conductor*%
D22*
G36*
X68912068Y-93866842D02*
G01*
X68855000Y-94153740D01*
X68855000Y-94446260D01*
X68912068Y-94733158D01*
X69024010Y-95003411D01*
X69186525Y-95246632D01*
X69320350Y-95380457D01*
X69198102Y-95404774D01*
X69009744Y-95482795D01*
X68840226Y-95596063D01*
X68746289Y-95690000D01*
X68732374Y-95690000D01*
X68697499Y-95686565D01*
X68662624Y-95690000D01*
X68662623Y-95690000D01*
X68558316Y-95700273D01*
X68424480Y-95740872D01*
X68422504Y-95741928D01*
X68200000Y-95741928D01*
X68044304Y-95757263D01*
X67894591Y-95802678D01*
X67800000Y-95853237D01*
X67705409Y-95802678D01*
X67555696Y-95757263D01*
X67400000Y-95741928D01*
X67160000Y-95741928D01*
X67160000Y-93660000D01*
X68997744Y-93660000D01*
X68912068Y-93866842D01*
G37*
%TD.AperFunction*%
%TD*%
M02*
