EESchema Schematic File Version 4
EELAYER 30 0
EELAYER END
$Descr A3 16535 11693
encoding utf-8
Sheet 1 1
Title ""
Date ""
Rev ""
Comp ""
Comment1 ""
Comment2 ""
Comment3 ""
Comment4 ""
$EndDescr
Wire Wire Line
	7300 4950 7300 5150
Wire Wire Line
	7300 5150 7200 5150
Wire Wire Line
	7100 5150 7100 4950
$Comp
L power:GND #PWR0101
U 1 1 5F84EA8D
P 7200 5300
F 0 "#PWR0101" H 7200 5050 50  0001 C CNN
F 1 "GND" H 7205 5127 50  0000 C CNN
F 2 "" H 7200 5300 50  0001 C CNN
F 3 "" H 7200 5300 50  0001 C CNN
	1    7200 5300
	1    0    0    -1  
$EndComp
Wire Wire Line
	2000 3500 2000 3150
$Comp
L power:VDD #PWR0103
U 1 1 5F85A489
P 2000 3150
F 0 "#PWR0103" H 2000 3000 50  0001 C CNN
F 1 "VDD" H 2015 3323 50  0000 C CNN
F 2 "" H 2000 3150 50  0001 C CNN
F 3 "" H 2000 3150 50  0001 C CNN
	1    2000 3150
	1    0    0    -1  
$EndComp
$Comp
L Device:R_US R1
U 1 1 5F8649A5
P 9100 3500
F 0 "R1" H 9168 3546 50  0000 L CNN
F 1 "4k7" H 9168 3455 50  0000 L CNN
F 2 "Resistor_SMD:R_0603_1608Metric_Pad0.98x0.95mm_HandSolder" V 9140 3490 50  0001 C CNN
F 3 "~" H 9100 3500 50  0001 C CNN
	1    9100 3500
	1    0    0    -1  
$EndComp
$Comp
L power:VDD #PWR0104
U 1 1 5F867762
P 9100 2750
F 0 "#PWR0104" H 9100 2600 50  0001 C CNN
F 1 "VDD" H 9115 2923 50  0000 C CNN
F 2 "" H 9100 2750 50  0001 C CNN
F 3 "" H 9100 2750 50  0001 C CNN
	1    9100 2750
	1    0    0    -1  
$EndComp
Wire Wire Line
	9100 2750 9100 3350
$Comp
L power:VDD #PWR0105
U 1 1 5F8679D9
P 9650 2750
F 0 "#PWR0105" H 9650 2600 50  0001 C CNN
F 1 "VDD" H 9665 2923 50  0000 C CNN
F 2 "" H 9650 2750 50  0001 C CNN
F 3 "" H 9650 2750 50  0001 C CNN
	1    9650 2750
	1    0    0    -1  
$EndComp
Wire Wire Line
	9100 3850 9100 3650
Wire Wire Line
	9650 3950 9650 3650
$Comp
L power:VDD #PWR0106
U 1 1 5F86878A
P 7200 2250
F 0 "#PWR0106" H 7200 2100 50  0001 C CNN
F 1 "VDD" H 7215 2423 50  0000 C CNN
F 2 "" H 7200 2250 50  0001 C CNN
F 3 "" H 7200 2250 50  0001 C CNN
	1    7200 2250
	1    0    0    -1  
$EndComp
Wire Wire Line
	7200 2250 7200 2850
Wire Wire Line
	3400 5550 3850 5550
Text Label 3600 5650 0    50   ~ 0
SDA
Wire Wire Line
	3400 5650 3850 5650
Text Label 3600 5550 0    50   ~ 0
SCL
$Comp
L Sensor_Humidity:HDC2080 U2
U 1 1 5F85AFF2
P 3100 5650
F 0 "U2" H 3050 6231 50  0000 C CNN
F 1 "HDC2080" H 3050 6140 50  0000 C CNN
F 2 "Package_SON:Texas_PWSON-N6" H 3100 5200 50  0001 C CNN
F 3 "http://www.ti.com/lit/ds/symlink/hdc2080.pdf" H 2800 5950 50  0001 C CNN
	1    3100 5650
	1    0    0    -1  
$EndComp
$Comp
L power:GND #PWR0107
U 1 1 5F86C3A5
P 3000 6050
F 0 "#PWR0107" H 3000 5800 50  0001 C CNN
F 1 "GND" H 3005 5877 50  0000 C CNN
F 2 "" H 3000 6050 50  0001 C CNN
F 3 "" H 3000 6050 50  0001 C CNN
	1    3000 6050
	1    0    0    -1  
$EndComp
$Comp
L power:VDD #PWR0108
U 1 1 5F86DA8D
P 3000 4950
F 0 "#PWR0108" H 3000 4800 50  0001 C CNN
F 1 "VDD" H 3015 5123 50  0000 C CNN
F 2 "" H 3000 4950 50  0001 C CNN
F 3 "" H 3000 4950 50  0001 C CNN
	1    3000 4950
	1    0    0    -1  
$EndComp
Wire Wire Line
	3000 4950 3000 5250
Wire Wire Line
	2450 5650 2700 5650
$Comp
L Device:C C1
U 1 1 5F86FF41
P 2850 3400
F 0 "C1" H 2965 3446 50  0000 L CNN
F 1 "C" H 2965 3355 50  0000 L CNN
F 2 "Capacitor_SMD:C_0603_1608Metric_Pad1.08x0.95mm_HandSolder" H 2888 3250 50  0001 C CNN
F 3 "~" H 2850 3400 50  0001 C CNN
	1    2850 3400
	1    0    0    -1  
$EndComp
$Comp
L Device:C C2
U 1 1 5F8709D5
P 3400 3400
F 0 "C2" H 3515 3446 50  0000 L CNN
F 1 "C" H 3515 3355 50  0000 L CNN
F 2 "Capacitor_SMD:C_0603_1608Metric_Pad1.08x0.95mm_HandSolder" H 3438 3250 50  0001 C CNN
F 3 "~" H 3400 3400 50  0001 C CNN
	1    3400 3400
	1    0    0    -1  
$EndComp
$Comp
L power:GND #PWR0102
U 1 1 5F859F46
P 2000 3800
F 0 "#PWR0102" H 2000 3550 50  0001 C CNN
F 1 "GND" H 2005 3627 50  0000 C CNN
F 2 "" H 2000 3800 50  0001 C CNN
F 3 "" H 2000 3800 50  0001 C CNN
	1    2000 3800
	1    0    0    -1  
$EndComp
$Comp
L Device:Battery_Cell BT1
U 1 1 5F85947F
P 2000 3700
F 0 "BT1" H 2118 3796 50  0000 L CNN
F 1 "Battery_Cell" H 2118 3705 50  0000 L CNN
F 2 "Battery:BatteryHolder_Keystone_3034_1x20mm" V 2000 3760 50  0001 C CNN
F 3 "~" V 2000 3760 50  0001 C CNN
	1    2000 3700
	1    0    0    -1  
$EndComp
$Comp
L power:GND #PWR0110
U 1 1 5F8733BE
P 2850 3550
F 0 "#PWR0110" H 2850 3300 50  0001 C CNN
F 1 "GND" H 2855 3377 50  0000 C CNN
F 2 "" H 2850 3550 50  0001 C CNN
F 3 "" H 2850 3550 50  0001 C CNN
	1    2850 3550
	1    0    0    -1  
$EndComp
$Comp
L power:GND #PWR0111
U 1 1 5F873730
P 3400 3550
F 0 "#PWR0111" H 3400 3300 50  0001 C CNN
F 1 "GND" H 3405 3377 50  0000 C CNN
F 2 "" H 3400 3550 50  0001 C CNN
F 3 "" H 3400 3550 50  0001 C CNN
	1    3400 3550
	1    0    0    -1  
$EndComp
$Comp
L power:VDD #PWR0112
U 1 1 5F8742EB
P 2850 3250
F 0 "#PWR0112" H 2850 3100 50  0001 C CNN
F 1 "VDD" H 2865 3423 50  0000 C CNN
F 2 "" H 2850 3250 50  0001 C CNN
F 3 "" H 2850 3250 50  0001 C CNN
	1    2850 3250
	1    0    0    -1  
$EndComp
$Comp
L power:VDD #PWR0113
U 1 1 5F8746B8
P 3400 3250
F 0 "#PWR0113" H 3400 3100 50  0001 C CNN
F 1 "VDD" H 3415 3423 50  0000 C CNN
F 2 "" H 3400 3250 50  0001 C CNN
F 3 "" H 3400 3250 50  0001 C CNN
	1    3400 3250
	1    0    0    -1  
$EndComp
$Comp
L RF_Bluetooth:BL652 U3
U 1 1 5F934EE6
P 7200 3950
F 0 "U3" H 7200 5231 50  0000 C CNN
F 1 "BL652" H 7200 5140 50  0000 C CNN
F 2 "RF_Module:Laird_BL652" H 7200 2750 50  0001 C CNN
F 3 "http://cdn.lairdtech.com/home/brandworld/files/Datasheet%20-%20BL652.pdf" H 7200 2650 50  0001 C CNN
	1    7200 3950
	1    0    0    -1  
$EndComp
Wire Wire Line
	7200 4950 7200 5150
Connection ~ 7200 5150
Wire Wire Line
	7200 5150 7100 5150
Wire Wire Line
	7400 4950 7400 5150
Wire Wire Line
	7400 5150 7300 5150
Connection ~ 7300 5150
Wire Wire Line
	7200 5150 7200 5300
Text Label 8500 3950 0    50   ~ 0
SDA
Text Label 8500 3850 0    50   ~ 0
SCL
Wire Wire Line
	8200 4450 8650 4450
Text Label 8350 4450 0    50   ~ 0
nRESET
Wire Wire Line
	8200 3850 9100 3850
Wire Wire Line
	8200 3950 9650 3950
$Comp
L Memory_EEPROM:CAT24M01W U1
U 1 1 5FA87361
P 3050 7850
F 0 "U1" H 3050 8331 50  0000 C CNN
F 1 "CAT24M01W" H 3050 8240 50  0000 C CNN
F 2 "Package_SO:SOIC-8_3.9x4.9mm_P1.27mm" H 3900 7600 50  0001 C CNN
F 3 "https://www.onsemi.com/pub/Collateral/CAT24M01-D.PDF" H 3050 7850 50  0001 C CNN
	1    3050 7850
	1    0    0    -1  
$EndComp
Wire Wire Line
	2450 6050 2450 5650
$Comp
L power:GND #PWR0109
U 1 1 5F86EF1F
P 2450 6050
F 0 "#PWR0109" H 2450 5800 50  0001 C CNN
F 1 "GND" H 2455 5877 50  0000 C CNN
F 2 "" H 2450 6050 50  0001 C CNN
F 3 "" H 2450 6050 50  0001 C CNN
	1    2450 6050
	1    0    0    -1  
$EndComp
$Comp
L power:GND #PWR03
U 1 1 5FA88F92
P 3050 8150
F 0 "#PWR03" H 3050 7900 50  0001 C CNN
F 1 "GND" H 3055 7977 50  0000 C CNN
F 2 "" H 3050 8150 50  0001 C CNN
F 3 "" H 3050 8150 50  0001 C CNN
	1    3050 8150
	1    0    0    -1  
$EndComp
$Comp
L power:VDD #PWR02
U 1 1 5FA8A741
P 3050 7250
F 0 "#PWR02" H 3050 7100 50  0001 C CNN
F 1 "VDD" H 3065 7423 50  0000 C CNN
F 2 "" H 3050 7250 50  0001 C CNN
F 3 "" H 3050 7250 50  0001 C CNN
	1    3050 7250
	1    0    0    -1  
$EndComp
Wire Wire Line
	3050 7250 3050 7550
$Comp
L power:GND #PWR01
U 1 1 5FA8BF51
P 2500 8300
F 0 "#PWR01" H 2500 8050 50  0001 C CNN
F 1 "GND" H 2505 8127 50  0000 C CNN
F 2 "" H 2500 8300 50  0001 C CNN
F 3 "" H 2500 8300 50  0001 C CNN
	1    2500 8300
	1    0    0    -1  
$EndComp
Wire Wire Line
	2650 7850 2500 7850
Wire Wire Line
	2500 7850 2500 7950
Wire Wire Line
	2650 7950 2500 7950
Connection ~ 2500 7950
Wire Wire Line
	2500 7950 2500 8300
Text Label 3600 7950 0    50   ~ 0
WP
Wire Wire Line
	8200 4050 8650 4050
Text Label 8500 4050 0    50   ~ 0
WP
Wire Wire Line
	3450 7750 4000 7750
Wire Wire Line
	3450 7850 4000 7850
Text Label 3600 7850 0    50   ~ 0
SCL
Text Label 3600 7750 0    50   ~ 0
SDA
Wire Wire Line
	3450 7950 4050 7950
$Comp
L Device:LED D1
U 1 1 5FA9EEEA
P 10350 4500
F 0 "D1" H 10343 4245 50  0000 C CNN
F 1 "LED" H 10343 4336 50  0000 C CNN
F 2 "LED_SMD:LED_0603_1608Metric" H 10350 4500 50  0001 C CNN
F 3 "~" H 10350 4500 50  0001 C CNN
	1    10350 4500
	0    -1   -1   0   
$EndComp
Wire Wire Line
	8200 4150 10000 4150
Wire Wire Line
	9650 2750 9650 3350
$Comp
L Device:R_US R2
U 1 1 5F865222
P 9650 3500
F 0 "R2" H 9718 3546 50  0000 L CNN
F 1 "4k7" H 9718 3455 50  0000 L CNN
F 2 "Resistor_SMD:R_0603_1608Metric_Pad0.98x0.95mm_HandSolder" V 9690 3490 50  0001 C CNN
F 3 "~" H 9650 3500 50  0001 C CNN
	1    9650 3500
	1    0    0    -1  
$EndComp
$Comp
L Device:R_US R4
U 1 1 5FAA4A05
P 10350 5000
F 0 "R4" H 10418 5046 50  0000 L CNN
F 1 "470" H 10418 4955 50  0000 L CNN
F 2 "Resistor_SMD:R_0603_1608Metric_Pad0.98x0.95mm_HandSolder" V 10390 4990 50  0001 C CNN
F 3 "~" H 10350 5000 50  0001 C CNN
	1    10350 5000
	1    0    0    -1  
$EndComp
$Comp
L power:GND #PWR04
U 1 1 5FAA5AE6
P 10350 5150
F 0 "#PWR04" H 10350 4900 50  0001 C CNN
F 1 "GND" H 10355 4977 50  0000 C CNN
F 2 "" H 10350 5150 50  0001 C CNN
F 3 "" H 10350 5150 50  0001 C CNN
	1    10350 5150
	1    0    0    -1  
$EndComp
Text Notes 3450 6000 0    50   ~ 0
I2C: 1000000
Wire Wire Line
	3400 5750 3850 5750
Text Label 3600 5750 0    50   ~ 0
DRDY
Wire Wire Line
	8200 4250 8650 4250
Text Label 8450 4250 0    50   ~ 0
DRDY
Text Notes 3450 8250 0    50   ~ 0
I2C: 101000X
Wire Wire Line
	10350 4650 10350 4850
$Comp
L Transistor_BJT:DTD123T Q1
U 1 1 5FAAF701
P 10250 4150
F 0 "Q1" H 10438 4196 50  0000 L CNN
F 1 "DTD123T" H 10438 4105 50  0000 L CNN
F 2 "Package_TO_SOT_SMD:SOT-23" H 10250 4150 50  0001 L CNN
F 3 "" H 10250 4150 50  0001 L CNN
	1    10250 4150
	1    0    0    -1  
$EndComp
$Comp
L power:VDD #PWR06
U 1 1 5FAB7E32
P 10350 3350
F 0 "#PWR06" H 10350 3200 50  0001 C CNN
F 1 "VDD" H 10365 3523 50  0000 C CNN
F 2 "" H 10350 3350 50  0001 C CNN
F 3 "" H 10350 3350 50  0001 C CNN
	1    10350 3350
	1    0    0    -1  
$EndComp
Wire Wire Line
	10350 3350 10350 3950
$Comp
L power:GND #PWR05
U 1 1 5FCC3C0E
P 11000 2750
F 0 "#PWR05" H 11000 2500 50  0001 C CNN
F 1 "GND" H 11005 2577 50  0000 C CNN
F 2 "" H 11000 2750 50  0001 C CNN
F 3 "" H 11000 2750 50  0001 C CNN
	1    11000 2750
	1    0    0    -1  
$EndComp
Wire Wire Line
	11000 2050 11250 2050
Wire Wire Line
	11250 2150 10500 2150
Wire Wire Line
	11250 2350 10500 2350
Wire Wire Line
	11250 2450 10500 2450
Text Label 10500 2150 0    50   ~ 0
SIO_5
Wire Wire Line
	11250 2250 10500 2250
Text Label 10050 2250 0    50   ~ 0
VDD
$Comp
L Connector_Generic:Conn_01x06 J1
U 1 1 5FCCB640
P 11450 2250
F 0 "J1" H 11530 2242 50  0000 L CNN
F 1 "Conn_01x06" H 11530 2151 50  0000 L CNN
F 2 "Connector_PinHeader_2.54mm:PinHeader_1x06_P2.54mm_Vertical" H 11450 2250 50  0001 C CNN
F 3 "~" H 11450 2250 50  0001 C CNN
	1    11450 2250
	1    0    0    -1  
$EndComp
Wire Wire Line
	11000 2050 11000 2750
Text Label 10500 2350 0    50   ~ 0
SIO_8
Text Label 10500 2450 0    50   ~ 0
SIO_6
Wire Wire Line
	11250 2550 10500 2550
Text Label 10500 2550 0    50   ~ 0
SIO_7
Wire Wire Line
	6200 3550 5600 3550
Wire Wire Line
	6200 3650 5600 3650
Wire Wire Line
	6200 3750 5600 3750
Wire Wire Line
	6200 3850 5600 3850
Text Label 5600 3550 0    50   ~ 0
SIO_5
Text Label 5600 3650 0    50   ~ 0
SIO_6
Text Label 5600 3750 0    50   ~ 0
SIO_7
Text Label 5600 3850 0    50   ~ 0
SIO_8
Text Notes 12050 2550 0    59   ~ 0
GND\nRTS\nVDD\nRX\nTX\nCTS
$Comp
L Device:R_US R3
U 1 1 5FCCDC8A
P 10350 2250
F 0 "R3" H 10418 2296 50  0000 L CNN
F 1 "0R/NM" H 10418 2205 50  0000 L CNN
F 2 "Resistor_SMD:R_0402_1005Metric_Pad0.72x0.64mm_HandSolder" V 10390 2240 50  0001 C CNN
F 3 "~" H 10350 2250 50  0001 C CNN
	1    10350 2250
	0    -1   -1   0   
$EndComp
Wire Wire Line
	10200 2250 10050 2250
$Comp
L Switch:SW_Push SW1
U 1 1 5FCD9E43
P 9150 6650
F 0 "SW1" H 9150 6935 50  0000 C CNN
F 1 "SW_Push" H 9150 6844 50  0000 C CNN
F 2 "Button_Switch_SMD:SW_SPST_TL3305A" H 9150 6850 50  0001 C CNN
F 3 "~" H 9150 6850 50  0001 C CNN
	1    9150 6650
	1    0    0    -1  
$EndComp
Wire Wire Line
	8200 3750 8700 3750
Text Label 8550 3750 0    50   ~ 0
BTN
Wire Wire Line
	8950 6650 8850 6650
Text Label 8400 6650 0    50   ~ 0
BTN
$Comp
L Device:R_US R5
U 1 1 5FCE19E2
P 8850 6950
F 0 "R5" H 8918 6996 50  0000 L CNN
F 1 "1K/NM" H 8918 6905 50  0000 L CNN
F 2 "Resistor_SMD:R_0402_1005Metric_Pad0.72x0.64mm_HandSolder" V 8890 6940 50  0001 C CNN
F 3 "~" H 8850 6950 50  0001 C CNN
	1    8850 6950
	-1   0    0    1   
$EndComp
Wire Wire Line
	8850 6650 8850 6800
Connection ~ 8850 6650
Wire Wire Line
	8850 6650 8400 6650
Wire Wire Line
	8850 7100 8850 7250
$Comp
L power:GND #PWR07
U 1 1 5FCE5726
P 8850 7250
F 0 "#PWR07" H 8850 7000 50  0001 C CNN
F 1 "GND" H 8855 7077 50  0000 C CNN
F 2 "" H 8850 7250 50  0001 C CNN
F 3 "" H 8850 7250 50  0001 C CNN
	1    8850 7250
	1    0    0    -1  
$EndComp
$Comp
L power:VDD #PWR08
U 1 1 5FCE71DC
P 9650 6050
F 0 "#PWR08" H 9650 5900 50  0001 C CNN
F 1 "VDD" H 9665 6223 50  0000 C CNN
F 2 "" H 9650 6050 50  0001 C CNN
F 3 "" H 9650 6050 50  0001 C CNN
	1    9650 6050
	1    0    0    -1  
$EndComp
Wire Wire Line
	9650 6050 9650 6650
Wire Wire Line
	9350 6650 9650 6650
$EndSCHEMATC
